%YAML 1.1
%TAG !u! tag:unity3d.com,2011:
--- !u!1953259897 &8574412962073106934
TerrainLayer:
  m_ObjectHideFlags: 0
  m_CorrespondingSourceObject: {fileID: 0}
  m_PrefabInstance: {fileID: 0}
  m_PrefabAsset: {fileID: 0}
  m_Name: Gaia_-20221026-132324_2
  m_DiffuseTexture: {fileID: 2800000, guid: 5a5c3b821f0e1904a8883ce8a157f892, type: 3}
  m_NormalMapTexture: {fileID: 2800000, guid: 25e8404e9d20aee479318ba8737bee01, type: 3}
  m_MaskMapTexture: {fileID: 2800000, guid: e683a1c2d9653d646a3319a9e8958492, type: 3}
  m_TileSize: {x: 8, y: 8}
  m_TileOffset: {x: 0, y: 0}
  m_Specular: {r: 0, g: 0, b: 0, a: 0}
  m_Metallic: 0.5
  m_Smoothness: 0.2
  m_NormalScale: 1
  m_DiffuseRemapMin: {x: 0, y: 0, z: 0, w: 0}
  m_DiffuseRemapMax: {x: 1, y: 1, z: 1, w: 1}
  m_MaskMapRemapMin: {x: 0, y: 0, z: 0, w: 0}
  m_MaskMapRemapMax: {x: 1, y: 1, z: 1, w: 1}
