%YAML 1.1
%TAG !u! tag:unity3d.com,2011:
--- !u!21 &2100000
Material:
  serializedVersion: 8
  m_ObjectHideFlags: 0
  m_CorrespondingSourceObject: {fileID: 0}
  m_PrefabInstance: {fileID: 0}
  m_PrefabAsset: {fileID: 0}
  m_Name: Rock_Granite_reFto Blue (TVE Material)
  m_Shader: {fileID: 4800000, guid: 6e6307b56f9201d40ad738f21cf03495, type: 3}
  m_ValidKeywords: []
  m_InvalidKeywords: []
  m_LightmapFlags: 0
  m_EnableInstancingVariants: 1
  m_DoubleSidedGI: 0
  m_CustomRenderQueue: 2450
  stringTagMap:
    NatureRendererInstancing: true
    RenderType: AlphaTest
  disabledShaderPasses:
  - DistortionVectors
  - TransparentBackfaceDebugDisplay
  - TransparentDepthPrepass
  - TransparentDepthPostpass
  - TransparentBackface
  - MOTIONVECTORS
  m_SavedProperties:
    serializedVersion: 3
    m_TexEnvs:
    - _AlbedoTex:
        m_Texture: {fileID: 2800000, guid: 4b1478d7a1f44b8c9a6da628fc449a83, type: 3}
        m_Scale: {x: 1, y: 1}
        m_Offset: {x: 0, y: 0}
    - _AnisotropyMap:
        m_Texture: {fileID: 0}
        m_Scale: {x: 1, y: 1}
        m_Offset: {x: 0, y: 0}
    - _AnisotropyMapT2DA:
        m_Texture: {fileID: 0}
        m_Scale: {x: 1, y: 1}
        m_Offset: {x: 0, y: 0}
    - _BaseColorMap:
        m_Texture: {fileID: 2800000, guid: 4b1478d7a1f44b8c9a6da628fc449a83, type: 3}
        m_Scale: {x: 1, y: 1}
        m_Offset: {x: 0, y: 0}
    - _BaseColorMapT2DA:
        m_Texture: {fileID: 0}
        m_Scale: {x: 1, y: 1}
        m_Offset: {x: 0, y: 0}
    - _BentNormalMap:
        m_Texture: {fileID: 0}
        m_Scale: {x: 1, y: 1}
        m_Offset: {x: 0, y: 0}
    - _BentNormalMapOS:
        m_Texture: {fileID: 0}
        m_Scale: {x: 1, y: 1}
        m_Offset: {x: 0, y: 0}
    - _BumpMap:
        m_Texture: {fileID: 2800000, guid: 7c6c973e9ebefc642aedd65359a40220, type: 3}
        m_Scale: {x: 1, y: 1}
        m_Offset: {x: 0, y: 0}
    - _CoatMaskMap:
        m_Texture: {fileID: 0}
        m_Scale: {x: 1, y: 1}
        m_Offset: {x: 0, y: 0}
    - _DetailMap:
        m_Texture: {fileID: 2800000, guid: 0566f42b55abf4642a013f4ce7c2ceef, type: 3}
        m_Scale: {x: 30, y: 30}
        m_Offset: {x: 0, y: 0}
    - _DetailMap2:
        m_Texture: {fileID: 0}
        m_Scale: {x: 1, y: 1}
        m_Offset: {x: 0, y: 0}
    - _DetailMap2T2DA:
        m_Texture: {fileID: 0}
        m_Scale: {x: 1, y: 1}
        m_Offset: {x: 0, y: 0}
    - _DetailMap3:
        m_Texture: {fileID: 0}
        m_Scale: {x: 1, y: 1}
        m_Offset: {x: 0, y: 0}
    - _DetailMap3T2DA:
        m_Texture: {fileID: 0}
        m_Scale: {x: 1, y: 1}
        m_Offset: {x: 0, y: 0}
    - _DetailMapT2DA:
        m_Texture: {fileID: 0}
        m_Scale: {x: 1, y: 1}
        m_Offset: {x: 0, y: 0}
    - _DetailMask:
        m_Texture: {fileID: 0}
        m_Scale: {x: 1, y: 1}
        m_Offset: {x: 0, y: 0}
    - _DetailMaskT2DA:
        m_Texture: {fileID: 0}
        m_Scale: {x: 1, y: 1}
        m_Offset: {x: 0, y: 0}
    - _DistortionVectorMap:
        m_Texture: {fileID: 0}
        m_Scale: {x: 1, y: 1}
        m_Offset: {x: 0, y: 0}
    - _DistortionVectorMapT2DA:
        m_Texture: {fileID: 0}
        m_Scale: {x: 1, y: 1}
        m_Offset: {x: 0, y: 0}
    - _EmissiveColorMap:
        m_Texture: {fileID: 0}
        m_Scale: {x: 1, y: 1}
        m_Offset: {x: 0, y: 0}
    - _EmissiveColorMapT2DA:
        m_Texture: {fileID: 0}
        m_Scale: {x: 1, y: 1}
        m_Offset: {x: 0, y: 0}
    - _EmissiveTex:
        m_Texture: {fileID: 2800000, guid: a463bc066ecd0784bb6f54dd2ce95c75, type: 3}
        m_Scale: {x: 1, y: 1}
        m_Offset: {x: 0, y: 0}
    - _Full2DetailAlbedoMap:
        m_Texture: {fileID: 0}
        m_Scale: {x: 1, y: 1}
        m_Offset: {x: 0, y: 0}
    - _Full2DetailAlbedoMapT2DA:
        m_Texture: {fileID: 0}
        m_Scale: {x: 1, y: 1}
        m_Offset: {x: 0, y: 0}
    - _Full2DetailNormalMap:
        m_Texture: {fileID: 0}
        m_Scale: {x: 1, y: 1}
        m_Offset: {x: 0, y: 0}
    - _Full2DetailNormalMapT2DA:
        m_Texture: {fileID: 0}
        m_Scale: {x: 1, y: 1}
        m_Offset: {x: 0, y: 0}
    - _FullDetailAlbedoMap:
        m_Texture: {fileID: 0}
        m_Scale: {x: 1, y: 1}
        m_Offset: {x: 0, y: 0}
    - _FullDetailAlbedoMapT2DA:
        m_Texture: {fileID: 0}
        m_Scale: {x: 1, y: 1}
        m_Offset: {x: 0, y: 0}
    - _FullDetailDensityMap:
        m_Texture: {fileID: 0}
        m_Scale: {x: 1, y: 1}
        m_Offset: {x: 0, y: 0}
    - _FullDetailDensityMapT2DA:
        m_Texture: {fileID: 0}
        m_Scale: {x: 1, y: 1}
        m_Offset: {x: 0, y: 0}
    - _FullDetailNormalMap:
        m_Texture: {fileID: 0}
        m_Scale: {x: 1, y: 1}
        m_Offset: {x: 0, y: 0}
    - _FullDetailNormalMapT2DA:
        m_Texture: {fileID: 0}
        m_Scale: {x: 1, y: 1}
        m_Offset: {x: 0, y: 0}
    - _FuzzMap:
        m_Texture: {fileID: 0}
        m_Scale: {x: 1, y: 1}
        m_Offset: {x: 0, y: 0}
    - _FuzzMapT2DA:
        m_Texture: {fileID: 0}
        m_Scale: {x: 1, y: 1}
        m_Offset: {x: 0, y: 0}
    - _HeightMap:
        m_Texture: {fileID: 0}
        m_Scale: {x: 1, y: 1}
        m_Offset: {x: 0, y: 0}
    - _HeightMapT2DA:
        m_Texture: {fileID: 0}
        m_Scale: {x: 1, y: 1}
        m_Offset: {x: 0, y: 0}
    - _HeightTex:
        m_Texture: {fileID: 0}
        m_Scale: {x: 1, y: 1}
        m_Offset: {x: 0, y: 0}
    - _IridescenceMaskMap:
        m_Texture: {fileID: 0}
        m_Scale: {x: 1, y: 1}
        m_Offset: {x: 0, y: 0}
    - _IridescenceThicknessMap:
        m_Texture: {fileID: 0}
        m_Scale: {x: 1, y: 1}
        m_Offset: {x: 0, y: 0}
    - _MainAlbedoTex:
        m_Texture: {fileID: 2800000, guid: cb123c34d9426b443a4f4bfd89bba686, type: 3}
        m_Scale: {x: 1, y: 1}
        m_Offset: {x: 0, y: 0}
    - _MainMaskTex:
        m_Texture: {fileID: 2800000, guid: 0243de988d894960a5ee0b7d8532d02c, type: 3}
        m_Scale: {x: 1, y: 1}
        m_Offset: {x: 0, y: 0}
    - _MainNormalTex:
        m_Texture: {fileID: 2800000, guid: 7c6c973e9ebefc642aedd65359a40220, type: 3}
        m_Scale: {x: 1, y: 1}
        m_Offset: {x: 0, y: 0}
    - _MainTex:
        m_Texture: {fileID: 2800000, guid: cb123c34d9426b443a4f4bfd89bba686, type: 3}
        m_Scale: {x: 1, y: 1}
        m_Offset: {x: 0, y: 0}
    - _MaskMap:
        m_Texture: {fileID: 0}
        m_Scale: {x: 1, y: 1}
        m_Offset: {x: 0, y: 0}
    - _MaskMapT2DA:
        m_Texture: {fileID: 0}
        m_Scale: {x: 1, y: 1}
        m_Offset: {x: 0, y: 0}
    - _MaskTex:
        m_Texture: {fileID: 2800000, guid: 0243de988d894960a5ee0b7d8532d02c, type: 3}
        m_Scale: {x: 1, y: 1}
        m_Offset: {x: 0, y: 0}
    - _MetallicTex:
        m_Texture: {fileID: 0}
        m_Scale: {x: 1, y: 1}
        m_Offset: {x: 0, y: 0}
    - _MotionVectorScaleMap:
        m_Texture: {fileID: 0}
        m_Scale: {x: 1, y: 1}
        m_Offset: {x: 0, y: 0}
    - _NormalMap:
        m_Texture: {fileID: 2800000, guid: 073a3fecc72f4b369607b5eab8fdc453, type: 3}
        m_Scale: {x: 1, y: 1}
        m_Offset: {x: 0, y: 0}
    - _NormalMapOS:
        m_Texture: {fileID: 2800000, guid: 50636200c5362e448b9506d314cfca1c, type: 3}
        m_Scale: {x: 1, y: 1}
        m_Offset: {x: 0, y: 0}
    - _NormalMapOST2DA:
        m_Texture: {fileID: 0}
        m_Scale: {x: 1, y: 1}
        m_Offset: {x: 0, y: 0}
    - _NormalMapT2DA:
        m_Texture: {fileID: 0}
        m_Scale: {x: 1, y: 1}
        m_Offset: {x: 0, y: 0}
    - _NormalTex:
        m_Texture: {fileID: 2800000, guid: 073a3fecc72f4b369607b5eab8fdc453, type: 3}
        m_Scale: {x: 1, y: 1}
        m_Offset: {x: 0, y: 0}
    - _OcclusionTex:
        m_Texture: {fileID: 0}
        m_Scale: {x: 1, y: 1}
        m_Offset: {x: 0, y: 0}
    - _SecondAlbedoTex:
        m_Texture: {fileID: 0}
        m_Scale: {x: 1, y: 1}
        m_Offset: {x: 0, y: 0}
    - _SecondMaskTex:
        m_Texture: {fileID: 0}
        m_Scale: {x: 1, y: 1}
        m_Offset: {x: 0, y: 0}
    - _SecondNormalTex:
        m_Texture: {fileID: 0}
        m_Scale: {x: 1, y: 1}
        m_Offset: {x: 0, y: 0}
    - _SecondPackedTex:
        m_Texture: {fileID: 0}
        m_Scale: {x: 1, y: 1}
        m_Offset: {x: 0, y: 0}
    - _SmoothnessTex:
        m_Texture: {fileID: 0}
        m_Scale: {x: 1, y: 1}
        m_Offset: {x: 0, y: 0}
    - _SpecularColorMap:
        m_Texture: {fileID: 0}
        m_Scale: {x: 1, y: 1}
        m_Offset: {x: 0, y: 0}
    - _SpecularColorMapT2DA:
        m_Texture: {fileID: 0}
        m_Scale: {x: 1, y: 1}
        m_Offset: {x: 0, y: 0}
    - _SpecularOcclusionMap:
        m_Texture: {fileID: 0}
        m_Scale: {x: 1, y: 1}
        m_Offset: {x: 0, y: 0}
    - _SpecularOcclusionMapT2DA:
        m_Texture: {fileID: 0}
        m_Scale: {x: 1, y: 1}
        m_Offset: {x: 0, y: 0}
    - _SubsurfaceMaskMap:
        m_Texture: {fileID: 0}
        m_Scale: {x: 1, y: 1}
        m_Offset: {x: 0, y: 0}
    - _SubsurfaceRadiusMap:
        m_Texture: {fileID: 0}
        m_Scale: {x: 1, y: 1}
        m_Offset: {x: 0, y: 0}
    - _SubsurfaceRadiusMapT2DA:
        m_Texture: {fileID: 0}
        m_Scale: {x: 1, y: 1}
        m_Offset: {x: 0, y: 0}
    - _SubsurfaceTex:
        m_Texture: {fileID: 0}
        m_Scale: {x: 1, y: 1}
        m_Offset: {x: 0, y: 0}
    - _TangentMap:
        m_Texture: {fileID: 0}
        m_Scale: {x: 1, y: 1}
        m_Offset: {x: 0, y: 0}
    - _TangentMapOS:
        m_Texture: {fileID: 0}
        m_Scale: {x: 1, y: 1}
        m_Offset: {x: 0, y: 0}
    - _TangentMapOST2DA:
        m_Texture: {fileID: 0}
        m_Scale: {x: 1, y: 1}
        m_Offset: {x: 0, y: 0}
    - _TangentMapT2DA:
        m_Texture: {fileID: 0}
        m_Scale: {x: 1, y: 1}
        m_Offset: {x: 0, y: 0}
    - _ThicknessMap:
        m_Texture: {fileID: 0}
        m_Scale: {x: 1, y: 1}
        m_Offset: {x: 0, y: 0}
    - _ThicknessMapT2DA:
        m_Texture: {fileID: 0}
        m_Scale: {x: 1, y: 1}
        m_Offset: {x: 0, y: 0}
    - _TransmittanceColorMap:
        m_Texture: {fileID: 0}
        m_Scale: {x: 1, y: 1}
        m_Offset: {x: 0, y: 0}
    - _WindFlutterMap:
        m_Texture: {fileID: 0}
        m_Scale: {x: 1, y: 1}
        m_Offset: {x: 0, y: 0}
    - _tex4coord:
        m_Texture: {fileID: 0}
        m_Scale: {x: 1, y: 1}
        m_Offset: {x: 0, y: 0}
    - _texcoord:
        m_Texture: {fileID: 0}
        m_Scale: {x: 1, y: 1}
        m_Offset: {x: 0, y: 0}
    - _texcoord2:
        m_Texture: {fileID: 0}
        m_Scale: {x: 1, y: 1}
        m_Offset: {x: 0, y: 0}
    - unity_Lightmaps:
        m_Texture: {fileID: 0}
        m_Scale: {x: 1, y: 1}
        m_Offset: {x: 0, y: 0}
    - unity_LightmapsInd:
        m_Texture: {fileID: 0}
        m_Scale: {x: 1, y: 1}
        m_Offset: {x: 0, y: 0}
    - unity_ShadowMasks:
        m_Texture: {fileID: 0}
        m_Scale: {x: 1, y: 1}
        m_Offset: {x: 0, y: 0}
    m_Ints: []
    m_Floats:
    - _AORemapMax: 1
    - _AORemapMin: 1
    - _ATDistance: 1
    - _AddPrecomputedVelocity: 1
    - _AdvancedCat: 0
    - _AlbedoAffectEmissive: 0
    - _AlphaClipValue: 0.5
    - _AlphaCutoff: 0.5
    - _AlphaCutoffEnable: 0
    - _AlphaCutoffPostpass: 0.5
    - _AlphaCutoffPrepass: 0.5
    - _AlphaCutoffValue: 0.5
    - _AlphaDstBlend: 0
    - _AlphaFeatherValue: 0.5
    - _AlphaSrcBlend: 1
    - _Anisotropy: 0
    - _Asperity: 1
    - _BackfaceSmoothnessScale: 1
    - _Banner: 0
    - _BarkCategory: 0
    - _BarkMessage: 0
    - _BaseCategory: 0
    - _BaseMapEncoding: 1
    - _BatchingMessage: 0
    - _BillboardCat: 0
    - _BillboardFadeHValue: 0
    - _BillboardFadeVValue: 0
    - _BillboardMode: 0
    - _BillboardShadowMode: 0
    - _BlendMode: 0
    - _CategoryDetail: 1
    - _CategoryEmissive: 1
    - _CategoryGlobal: 1
    - _CategoryGradient: 0
    - _CategoryMain: 1
    - _CategoryMotion: 0
    - _CategoryNoise: 0
    - _CategoryOcclusion: 0
    - _CategoryPerspective: 0
    - _CategoryRender: 1
    - _CategoryRendering: 0
    - _CategorySizeFade: 0
    - _CategorySubsurface: 0
    - _CoatCoverage: 1
    - _CoatIOR: 0.5
    - _CoatMask: 0
    - _ColorsMaskValue: 0
    - _CullMode: 2
    - _CullModeForward: 2
    - _Cutoff: 0.5
    - _DepthOffset: 0
    - _DepthOffsetEnable: 0
    - _DetailAlbedoScale: 0
    - _DetailBlendMaxValue: 0.3
    - _DetailBlendMinValue: 0.2
    - _DetailBlendMode: 1
    - _DetailCat: 1
    - _DetailCoordMode: 0
    - _DetailMapsMode: 0
    - _DetailMaskContrast: 0.25
    - _DetailMaskInvertMode: 0
    - _DetailMaskMode: 0
    - _DetailMaskValue: 0
    - _DetailMeshValue: 0
    - _DetailMode: 0
    - _DetailNormalScale: 2
    - _DetailNormalValue: 0.5
    - _DetailProjectionMode: 0
    - _DetailShadingCat: 0
    - _DetailSmoothnessScale: 1.223
    - _DetailSpace: 0
    - _DetailTypeMode: 0
    - _DiffusionProfile: 0
    - _DisplacementLockObjectScale: 1
    - _DisplacementLockTilingScale: 1
    - _DisplacementMode: 0
    - _DistortionBlendMode: 0
    - _DistortionBlurBlendMode: 0
    - _DistortionBlurDstBlend: 1
    - _DistortionBlurRemapMax: 1
    - _DistortionBlurRemapMin: 0
    - _DistortionBlurScale: 1
    - _DistortionBlurSrcBlend: 1
    - _DistortionDepthTest: 0
    - _DistortionDstBlend: 1
    - _DistortionEnable: 0
    - _DistortionOnly: 0
    - _DistortionScale: 1
    - _DistortionSrcBlend: 1
    - _DistortionVectorBias: -1
    - _DistortionVectorScale: 2
    - _DoubleSidedEnable: 0
    - _DoubleSidedNormalMode: 1
    - _Drag: 1
    - _DstBlend: 0
    - _EmissiveCat: 1
    - _EmissiveColorMode: 1
    - _EmissiveCoordMode: 0
    - _EmissiveExposureValue: 0.5
    - _EmissiveFlagMode: 0
    - _EmissiveMode: 1
    - _EnableBlendModePreserveSpecularLighting: 1
    - _EnableFogOnTransparent: 1
    - _EnableGeometricSpecularAA: 0
    - _EnableMotionVectorForVertexAnimation: 0
    - _EnablePerPixelDisplacement: 0
    - _EnableSpecularOcclusion: 0
    - _EnableWind: 0
    - _EnergyConservingSpecularColor: 1
    - _ExtrasPositionMode: 0
    - _FadeCameraValue: 1
    - _FadeCat: 0
    - _FadeSpace: 0
    - _Float6: 0.5
    - _FullDetailNormalBlendThreshold: 1
    - _FullDetailNormalBlendWidth: 0.05
    - _GlobalCat: 1
    - _GlobalEmissive: 1
    - _GlobalLeaves: 1
    - _GlobalOverlay: 0.817
    - _GlobalSizeFade: 0
    - _GlobalSpace: 0
    - _GlobalWetness: 1
    - _GradientCat: 0
    - _GrassPerspectiveAngleValue: 0
    - _GrassPerspectiveNoiseValue: 0
    - _GrassPerspectivePushValue: 0
    - _HasEmissive: 1
    - _HasGradient: 0
    - _HasOcclusion: 0
    - _HdrpVersion: 1
    - _HeightAmplitude: 0.01
    - _HeightCenter: 0.5
    - _HeightMapParametrization: 0
    - _HeightMax: 1
    - _HeightMin: -1
    - _HeightOffset: 0
    - _HeightPoMAmplitude: 2
    - _HeightTessAmplitude: 2
    - _HeightTessCenter: 0.5
    - _HorizonFade: 1
    - _IOR: 1
    - _InitialBend: 1
    - _InteractionAmplitude: 0
    - _InteractionVariation: 0
    - _InvTilingScale: 1
    - _Ior: 1
    - _IridescenceMask: 1
    - _IridescenceThickness: 1
    - _IsAnyPathShader: 1
    - _IsBalancedShader: 1
    - _IsHDPipeline: 1
    - _IsLitShader: 1
    - _IsPropShader: 1
    - _IsStandardPipeline: 1
    - _IsStandardShader: 1
    - _IsTVEShader: 1
    - _IsTarget40Shader: 1
    - _IsUniversalPipeline: 1
    - _IsVersion: 700
    - _LayerExtrasValue: 0
    - _LayerReactValue: 0
    - _LayersSpace: 0
    - _LeafCategory: 0
    - _LeafMessage: 0
    - _LeavesVariationValue: 0
    - _LinkDetailsWithBase: 0
    - _LocalCat: 0
    - _MainCat: 1
    - _MainColorMode: 1
    - _MainMaskMaxValue: 1
    - _MainMaskMinValue: 0
    - _MainMaskValue: 0
    - _MainMessage: 0
    - _MainMetallicValue: 0
    - _MainNormalValue: 1
    - _MainOcclusionValue: 0.5
    - _MainSmoothnessValue: 1
    - _MaskMapEncoding: 0
    - _MaskMode: 0
    - _MaterialID: 1
    - _MessageGlobalsVariation: 0
    - _MessageMotionVariation: 0
    - _MessageSizeFade: 0
    - _MessageTranslucencyHD: 0
    - _Metallic: 0
    - _MotionAmplitude_10: 0
    - _MotionAmplitude_20: 0
    - _MotionAmplitude_30: 0
    - _MotionAmplitude_32: 0
    - _MotionCat: 0
    - _MotionScale_10: 0
    - _MotionScale_20: 0
    - _MotionScale_30: 30
    - _MotionScale_32: 30
    - _MotionSpace: 0
    - _MotionSpeed_10: 2
    - _MotionSpeed_20: 5
    - _MotionSpeed_30: 15
    - _MotionSpeed_32: 30
    - _MotionVariation_10: 0
    - _MotionVariation_20: 0
    - _MotionVariation_30: 30
    - _MotionVariation_32: 30
    - _MotionVectorScale: 1
    - _MotionVectorsWorldspaceScaled: 0
    - _NoiseCat: 0
    - _NormalMapSpace: 0
    - _NormalScale: 1
    - _ObjectDataMessage: 0
    - _ObjectMetallicValue: 0
    - _ObjectOcclusionValue: 0
    - _ObjectSmoothnessValue: 0
    - _ObjectThicknessValue: 0
    - _OcclusionCat: 0
    - _OcclusionStrength: 1
    - _OverlayBottomValue: 0.5
    - _OverlayContrast: 0
    - _OverlayContrastValue: 10
    - _OverlayMaskMaxValue: 0.5900901
    - _OverlayMaskMinValue: 0.4420901
    - _OverlayVariation: 0
    - _PPDLodThreshold: 5
    - _PPDMaxSamples: 15
    - _PPDMinSamples: 5
    - _PPDPrimitiveLength: 1
    - _PPDPrimitiveWidth: 1
    - _PerspectiveCat: 0
    - _PivotsMessage: 0
    - _PreRefractionPass: 0
    - _QueueControl: -1
    - _QueueOffset: 0
    - _ReceiveSpace: 0
    - _ReceivesSSR: 0
    - _ReceivesSSRTransparent: 0
    - _RefractionMode: 0
    - _RefractionModel: 0
    - _RefractionSSRayModel: 0
    - _RenderAmbient: 1
    - _RenderBlend: 0
    - _RenderClip: 0
    - _RenderCoverage: 0
    - _RenderCull: 2
    - _RenderCutoff: 0.5
    - _RenderDecals: 0
    - _RenderDirect: 1
    - _RenderMode: 0
    - _RenderNormals: 0
    - _RenderPriority: 0
    - _RenderQueue: 0
    - _RenderQueueType: 1
    - _RenderSSR: 1
    - _RenderShadow: 1
    - _RenderZWrite: 1
    - _RenderingCat: 1
    - _RequireSplitLighting: 0
    - _SSRefractionProjectionModel: 0
    - _SSSAndTransmissionType: 0
    - _SecondMetallicValue: 0
    - _SecondNormalValue: 0
    - _SecondOcclusionValue: 1
    - _SecondSmoothnessValue: 1
    - _SettingsCategory: 0
    - _ShaderMode: 1
    - _ShiverDirectionality: 0.5
    - _ShiverDrag: 0.2
    - _SizeFadeCat: 0
    - _SizeFadeMessage: 0
    - _Smoothness: 0.052
    - _SmoothnessRemapMax: 0.4872478
    - _SmoothnessRemapMin: 0
    - _SmoothnessViewAngleOffset: 0
    - _SpaceGlobalLayers: 0
    - _SpaceGlobalLocals: 0
    - _SpaceGlobalPosition: 0
    - _SpaceMotionGlobals: 0
    - _SpaceMotionHighlight: 0
    - _SpaceMotionLocals: 0
    - _SpaceRenderFade: 0
    - _SpaceRenderReceive: 0
    - _SpecularAAScreenSpaceVariance: 0.1
    - _SpecularAAThreshold: 0.2
    - _SrcBlend: 1
    - _StencilRef: 0
    - _StencilRefDepth: 8
    - _StencilRefDistortionVec: 4
    - _StencilRefGBuffer: 10
    - _StencilRefMV: 40
    - _StencilWriteMask: 6
    - _StencilWriteMaskDepth: 8
    - _StencilWriteMaskDistortionVec: 4
    - _StencilWriteMaskGBuffer: 14
    - _StencilWriteMaskMV: 40
    - _Stiffness: 1
    - _SubsurfaceAmbientValue: 0.2
    - _SubsurfaceAngleValue: 8
    - _SubsurfaceCat: 0
    - _SubsurfaceDiffusion: 3.5648174
    - _SubsurfaceDirectValue: 1
    - _SubsurfaceMask: 1
    - _SubsurfaceMaskValue: 1
    - _SubsurfaceMaxValue: 0
    - _SubsurfaceMinValue: 0
    - _SubsurfaceMode: 0
    - _SubsurfaceNormalValue: 0
    - _SubsurfaceProfile: 0
    - _SubsurfaceRadius: 1
    - _SubsurfaceScatteringValue: 2
    - _SubsurfaceShadowValue: 1
    - _SupportDBuffer: 1
    - _SupportDecals: 1
    - _SurfaceCategory: 0
    - _SurfaceMessage: 0
    - _SurfaceType: 0
    - _TexWorldScale: 1
    - _TexWorldScaleEmissive: 1
    - _Thickness: 1
    - _ThicknessMapEncoding: 0
    - _ThicknessMultiplier: 1
    - _TranslucencyAmbientValue: 0.2
    - _TranslucencyDirectValue: 1
    - _TranslucencyHDMessage: 0
    - _TranslucencyIntensityValue: 1
    - _TranslucencyNormalValue: 0.1
    - _TranslucencyScatteringValue: 2
    - _TranslucencyShadowValue: 1
    - _TransmissionEnable: 1
    - _TransmissionSelfOcclusion: 1
    - _TransparentBackfaceEnable: 0
    - _TransparentCullMode: 2
    - _TransparentDepthPostpassEnable: 0
    - _TransparentDepthPrepassEnable: 0
    - _TransparentSortPriority: 0
    - _TransparentZWrite: 1
    - _Tree12Width: 10
    - _TreeAO: 1
    - _TreeAO2: 2.4
    - _TreeAOBias: 0.1
    - _TreeAOBias2: 0.35
    - _TreeDO: 7.5
    - _TreeDO2: 5
    - _TreeDOBias: 0
    - _TreeDOBias2: 0
    - _UVBase: 0
    - _UVDetail: 0
    - _UVEmissive: 0
    - _UseShadowThreshold: 0
    - _UseTreeOcclusion: 0
    - _VariationGlobalsMessage: 0
    - _VariationMessage: 0
    - _VariationMotionMessage: 0
    - _VertexDataMode: 0
    - _VertexDynamicMode: 0
    - _VertexMasksMode: 0
    - _VertexOcclusion: 0
    - _VertexOcclusionValue: 0
    - _VertexPivotMode: 0
    - _VertexPivotModeFetch: 0
    - _VertexRollingMode: 1
    - _VertexVariationMode: 0
    - _WindElasticityLvl0: 1
    - _WindElasticityLvl1: 1
    - _WindElasticityLvlB: 1
    - _WindFakeSingleObjectPivot: 0
    - _WindFlutterElasticity: 0.1
    - _WindFlutterPeriodScale: 1
    - _WindFlutterPhase: 50
    - _WindFlutterScale: 0.1
    - _WindHeightIntensity: 0.1
    - _WindHeightScale: 2
    - _WindHeightSpeed: 1
    - _WindInnerRadius: 0.5
    - _WindRadiusIntensity: 0.1
    - _WindRadiusSpeed: 1
    - _WindRangeLvl0: 2
    - _WindRangeLvl1: 0.5
    - _WindRangeLvlB: 5
    - _WindRangeRadius: 2.5
    - _WorldDataMessage: 0
    - _ZTestDepthEqualForOpaque: 3
    - _ZTestGBuffer: 4
    - _ZTestMode: 8
    - _ZTestModeDistortion: 8
    - _ZTestTransparent: 4
    - _ZWrite: 1
    - __dirty: 1
    - _material_batching: 0
    - _render_blend: 0
    - _render_clip: 0
    - _render_coverage: 0
    - _render_cull: 2
    - _render_cutoff: 0.5
    - _render_dst: 0
    - _render_mode: 0
    - _render_normals: 0
    - _render_premul: 0
    - _render_priority: 0
    - _render_src: 1
    - _render_zw: 1
    - _vertex_pivot_mode: 0
    m_Colors:
    - _AlphaMaskRemap: {r: 0, g: 0, b: 0, a: 0}
    - _BackfaceBaseColorScale: {r: 1, g: 1, b: 1, a: 1}
    - _BaseColor: {r: 0.7075472, g: 0.7075472, b: 0.7075472, a: 1}
    - _BaseColorRandomize: {r: 0, g: 0, b: 0, a: 0.05}
    - _Color: {r: 1, g: 1, b: 1, a: 1}
    - _ColorsMaskRemap: {r: 0, g: 0, b: 0, a: 0}
    - _DetailBlendRemap: {r: 0, g: 0, b: 0, a: 0}
    - _DoubleSidedConstants: {r: -1, g: -1, b: -1, a: 0}
    - _EmissionColor: {r: 1, g: 1, b: 1, a: 1}
    - _EmissiveColor: {r: 0, g: 1.7855692, b: 4.2443857, a: 1}
    - _EmissiveIntensityParams: {r: 1, g: 1, b: 1, a: 0}
    - _EmissiveUVs: {r: 1, g: 1, b: 0, a: 0}
    - _GradientMaskRemap: {r: 0, g: 0, b: 0, a: 0}
    - _ImposterOffset: {r: 0.5, g: 0, b: 0, a: 0}
    - _InvPrimScale: {r: 1, g: 1, b: 0, a: 0}
    - _IridescenceThicknessRemap: {r: 0, g: 1, b: 0, a: 0}
    - _LeavesMaskRemap: {r: 0, g: 0, b: 0, a: 2}
    - _MainColor: {r: 1, g: 1, b: 1, a: 1}
    - _MainUVs: {r: 1, g: 1, b: 0, a: 0}
    - _MaxBoundsInfo: {r: 1, g: 1, b: 1, a: 1}
    - _NoiseMaskRemap: {r: 0, g: 0, b: 0, a: 0}
    - _NoiseTintOne: {r: 1, g: 1, b: 1, a: 1}
    - _NoiseTintTwo: {r: 1, g: 1, b: 1, a: 1}
    - _OverlayMaskRemap: {r: 0.4420901, g: 0.5900901, b: 0, a: 0}
    - _PeeledBarkColor: {r: 1, g: 1, b: 1, a: 1}
    - _PeeledBarkColorAlt: {r: 0.9, g: 0.9, b: 1, a: 1}
    - _PeeledBarkUVRangeScale: {r: 0, g: 1, b: 2, a: 0}
    - _SecondColor: {r: 1, g: 1, b: 1, a: 1}
    - _SecondUVs: {r: 1, g: 1, b: 0, a: 0}
    - _SpecularColor: {r: 1, g: 1, b: 1, a: 1}
    - _SubsurfaceDiffusion_Asset: {r: 2.2888926e+38, g: 1.2389358e-26, b: 7.69327e-37, a: 0.00018220427}
    - _SubsurfaceDiffusion_asset: {r: 2.2888926e+38, g: 1.2389358e-26, b: 7.69327e-37, a: 0.00018220427}
    - _SubsurfaceMaskRemap: {r: 0, g: 0, b: 0, a: 0}
    - _ThicknessRemap: {r: 0, g: 1, b: 0, a: 0}
    - _TransmittanceColor: {r: 1, g: 1, b: 1, a: 1}
    - _UVDetailsMappingMask: {r: 1, g: 0, b: 0, a: 0}
    - _UVMappingMask: {r: 1, g: 0, b: 0, a: 0}
    - _UVMappingMaskEmissive: {r: 1, g: 0, b: 0, a: 0}
    - _VertexOcclusionRemap: {r: 0, g: 0, b: 0, a: 0}
    - _render_normals: {r: -1, g: -1, b: -1, a: 0}
    - _render_normals_options: {r: -1, g: -1, b: -1, a: 0}
  m_BuildTextureStacks: []
