%YAML 1.1
%TAG !u! tag:unity3d.com,2011:
--- !u!21 &2100000
Material:
  serializedVersion: 8
  m_ObjectHideFlags: 0
  m_CorrespondingSourceObject: {fileID: 0}
  m_PrefabInstance: {fileID: 0}
  m_PrefabAsset: {fileID: 0}
  m_Name: Clouds_Swirly
  m_Shader: {fileID: 4800000, guid: d9a04e58e9828794cbdf3864a69debfd, type: 3}
  m_ValidKeywords:
  - _USEFOG_ON
  m_InvalidKeywords:
  - _GAMMALINEAR_GAMMA
  - _KEYWORD0_KEY0
  - _KEYWORD0_ON
  - _USEFOGCOLOR_ON
  - _USESECONDNOISE_ON
  - _VERTEXCOLORCHANNEL_RGBA
  m_LightmapFlags: 0
  m_EnableInstancingVariants: 1
  m_DoubleSidedGI: 0
  m_CustomRenderQueue: -1
  stringTagMap: {}
  disabledShaderPasses: []
  m_SavedProperties:
    serializedVersion: 3
    m_TexEnvs:
    - _Noise01:
        m_Texture: {fileID: 2800000, guid: ee42667f1ca696a4fa022b8637a52f89, type: 3}
        m_Scale: {x: 1, y: 1}
        m_Offset: {x: -0.4, y: 0}
    - _Noise02:
        m_Texture: {fileID: 2800000, guid: ee42667f1ca696a4fa022b8637a52f89, type: 3}
        m_Scale: {x: 1, y: 1}
        m_Offset: {x: 0, y: 0}
    m_Ints: []
    m_Floats:
    - _AlphaCutoff: 0.5
    - _Coverage: 0.7
    - _Noise01Power: 1
    - _Noise02Power: 0.679
    - _ScatteringPower: 6
    - _Softness: 1
    - _Tiling01: 0.7
    - _Tiling02: 2
    - _UseFog: 1
    - _ViewDistance: 5000
    - __dirty: 0
    - _cloudsHeight: 1000
    - _cloudsPosition: 503
    m_Colors:
    - _CloudsColor: {r: 0.49724102, g: 0.62178177, b: 0.6981132, a: 1}
    - _DirectionSpeed: {r: -30, g: 2, b: 17, a: -8}
    - _EmissionColor: {r: 1, g: 1, b: 1, a: 1}
    - _ScatteringColor: {r: 1, g: 1, b: 1, a: 1}
  m_BuildTextureStacks: []
