%YAML 1.1
%TAG !u! tag:unity3d.com,2011:
--- !u!21 &2100000
Material:
  serializedVersion: 8
  m_ObjectHideFlags: 0
  m_CorrespondingSourceObject: {fileID: 0}
  m_PrefabInstance: {fileID: 0}
  m_PrefabAsset: {fileID: 0}
  m_Name: Clover_01 (TVE Material)
  m_Shader: {fileID: 4800000, guid: a933075b367f9b24981408633f72ff34, type: 3}
  m_ValidKeywords:
  - TVE_FEATURE_CLIP
  m_InvalidKeywords: []
  m_LightmapFlags: 0
  m_EnableInstancingVariants: 1
  m_DoubleSidedGI: 1
  m_CustomRenderQueue: 2450
  stringTagMap:
    DisableBatching: true
    NatureRendererInstancing: true
    RenderType: AlphaTest
  disabledShaderPasses:
  - DistortionVectors
  - TransparentBackfaceDebugDisplay
  - TransparentDepthPrepass
  - TransparentDepthPostpass
  - TransparentBackface
  m_SavedProperties:
    serializedVersion: 3
    m_TexEnvs:
    - _AlbedoTex:
        m_Texture: {fileID: 2800000, guid: d9cd529f91ad42d0a2fc257448fe699b, type: 3}
        m_Scale: {x: 1, y: 1}
        m_Offset: {x: 0, y: 0}
    - _AnisotropyMap:
        m_Texture: {fileID: 0}
        m_Scale: {x: 1, y: 1}
        m_Offset: {x: 0, y: 0}
    - _AnisotropyMapT2DA:
        m_Texture: {fileID: 0}
        m_Scale: {x: 1, y: 1}
        m_Offset: {x: 0, y: 0}
    - _BaseColorMap:
        m_Texture: {fileID: 2800000, guid: d9cd529f91ad42d0a2fc257448fe699b, type: 3}
        m_Scale: {x: 1, y: 1}
        m_Offset: {x: 0, y: 0}
    - _BaseColorMapT2DA:
        m_Texture: {fileID: 0}
        m_Scale: {x: 1, y: 1}
        m_Offset: {x: 0, y: 0}
    - _BentNormalMap:
        m_Texture: {fileID: 0}
        m_Scale: {x: 1, y: 1}
        m_Offset: {x: 0, y: 0}
    - _BentNormalMapOS:
        m_Texture: {fileID: 0}
        m_Scale: {x: 1, y: 1}
        m_Offset: {x: 0, y: 0}
    - _BumpMap:
        m_Texture: {fileID: 2800000, guid: 9dfc9a282cd0490b9ffd3c16f5555d14, type: 3}
        m_Scale: {x: 1, y: 1}
        m_Offset: {x: 0, y: 0}
    - _CoatMaskMap:
        m_Texture: {fileID: 0}
        m_Scale: {x: 1, y: 1}
        m_Offset: {x: 0, y: 0}
    - _DetailAlbedoMap:
        m_Texture: {fileID: 0}
        m_Scale: {x: 1, y: 1}
        m_Offset: {x: 0, y: 0}
    - _DetailMap:
        m_Texture: {fileID: 0}
        m_Scale: {x: 1, y: 1}
        m_Offset: {x: 0, y: 0}
    - _DetailMap2:
        m_Texture: {fileID: 0}
        m_Scale: {x: 1, y: 1}
        m_Offset: {x: 0, y: 0}
    - _DetailMap2T2DA:
        m_Texture: {fileID: 0}
        m_Scale: {x: 1, y: 1}
        m_Offset: {x: 0, y: 0}
    - _DetailMap3:
        m_Texture: {fileID: 0}
        m_Scale: {x: 1, y: 1}
        m_Offset: {x: 0, y: 0}
    - _DetailMap3T2DA:
        m_Texture: {fileID: 0}
        m_Scale: {x: 1, y: 1}
        m_Offset: {x: 0, y: 0}
    - _DetailMapT2DA:
        m_Texture: {fileID: 0}
        m_Scale: {x: 1, y: 1}
        m_Offset: {x: 0, y: 0}
    - _DetailMask:
        m_Texture: {fileID: 0}
        m_Scale: {x: 1, y: 1}
        m_Offset: {x: 0, y: 0}
    - _DetailMaskT2DA:
        m_Texture: {fileID: 0}
        m_Scale: {x: 1, y: 1}
        m_Offset: {x: 0, y: 0}
    - _DetailNormalMap:
        m_Texture: {fileID: 0}
        m_Scale: {x: 1, y: 1}
        m_Offset: {x: 0, y: 0}
    - _DistortionVectorMap:
        m_Texture: {fileID: 0}
        m_Scale: {x: 1, y: 1}
        m_Offset: {x: 0, y: 0}
    - _DistortionVectorMapT2DA:
        m_Texture: {fileID: 0}
        m_Scale: {x: 1, y: 1}
        m_Offset: {x: 0, y: 0}
    - _EmissionMap:
        m_Texture: {fileID: 0}
        m_Scale: {x: 1, y: 1}
        m_Offset: {x: 0, y: 0}
    - _EmissiveColorMap:
        m_Texture: {fileID: 0}
        m_Scale: {x: 1, y: 1}
        m_Offset: {x: 0, y: 0}
    - _EmissiveColorMapT2DA:
        m_Texture: {fileID: 0}
        m_Scale: {x: 1, y: 1}
        m_Offset: {x: 0, y: 0}
    - _EmissiveTex:
        m_Texture: {fileID: 0}
        m_Scale: {x: 1, y: 1}
        m_Offset: {x: 0, y: 0}
    - _Full2DetailAlbedoMap:
        m_Texture: {fileID: 0}
        m_Scale: {x: 1, y: 1}
        m_Offset: {x: 0, y: 0}
    - _Full2DetailAlbedoMapT2DA:
        m_Texture: {fileID: 0}
        m_Scale: {x: 1, y: 1}
        m_Offset: {x: 0, y: 0}
    - _Full2DetailNormalMap:
        m_Texture: {fileID: 0}
        m_Scale: {x: 1, y: 1}
        m_Offset: {x: 0, y: 0}
    - _Full2DetailNormalMapT2DA:
        m_Texture: {fileID: 0}
        m_Scale: {x: 1, y: 1}
        m_Offset: {x: 0, y: 0}
    - _FullDetailAlbedoMap:
        m_Texture: {fileID: 0}
        m_Scale: {x: 1, y: 1}
        m_Offset: {x: 0, y: 0}
    - _FullDetailAlbedoMapT2DA:
        m_Texture: {fileID: 0}
        m_Scale: {x: 1, y: 1}
        m_Offset: {x: 0, y: 0}
    - _FullDetailDensityMap:
        m_Texture: {fileID: 0}
        m_Scale: {x: 1, y: 1}
        m_Offset: {x: 0, y: 0}
    - _FullDetailDensityMapT2DA:
        m_Texture: {fileID: 0}
        m_Scale: {x: 1, y: 1}
        m_Offset: {x: 0, y: 0}
    - _FullDetailNormalMap:
        m_Texture: {fileID: 0}
        m_Scale: {x: 1, y: 1}
        m_Offset: {x: 0, y: 0}
    - _FullDetailNormalMapT2DA:
        m_Texture: {fileID: 0}
        m_Scale: {x: 1, y: 1}
        m_Offset: {x: 0, y: 0}
    - _FuzzMap:
        m_Texture: {fileID: 0}
        m_Scale: {x: 1, y: 1}
        m_Offset: {x: 0, y: 0}
    - _FuzzMapT2DA:
        m_Texture: {fileID: 0}
        m_Scale: {x: 1, y: 1}
        m_Offset: {x: 0, y: 0}
    - _HeightMap:
        m_Texture: {fileID: 0}
        m_Scale: {x: 1, y: 1}
        m_Offset: {x: 0, y: 0}
    - _HeightMapT2DA:
        m_Texture: {fileID: 0}
        m_Scale: {x: 1, y: 1}
        m_Offset: {x: 0, y: 0}
    - _HeightTex:
        m_Texture: {fileID: 0}
        m_Scale: {x: 1, y: 1}
        m_Offset: {x: 0, y: 0}
    - _IridescenceMaskMap:
        m_Texture: {fileID: 0}
        m_Scale: {x: 1, y: 1}
        m_Offset: {x: 0, y: 0}
    - _IridescenceThicknessMap:
        m_Texture: {fileID: 0}
        m_Scale: {x: 1, y: 1}
        m_Offset: {x: 0, y: 0}
    - _MainAlbedoTex:
        m_Texture: {fileID: 2800000, guid: d9cd529f91ad42d0a2fc257448fe699b, type: 3}
        m_Scale: {x: 1, y: 1}
        m_Offset: {x: 0, y: 0}
    - _MainMaskTex:
        m_Texture: {fileID: 2800000, guid: 029ca72742c94299aa081f9a95e2a0f0, type: 3}
        m_Scale: {x: 1, y: 1}
        m_Offset: {x: 0, y: 0}
    - _MainNormalTex:
        m_Texture: {fileID: 2800000, guid: 9dfc9a282cd0490b9ffd3c16f5555d14, type: 3}
        m_Scale: {x: 1, y: 1}
        m_Offset: {x: 0, y: 0}
    - _MainTex:
        m_Texture: {fileID: 2800000, guid: d9cd529f91ad42d0a2fc257448fe699b, type: 3}
        m_Scale: {x: 1, y: 1}
        m_Offset: {x: 0, y: 0}
    - _MaskMap:
        m_Texture: {fileID: 2800000, guid: 029ca72742c94299aa081f9a95e2a0f0, type: 3}
        m_Scale: {x: 1, y: 1}
        m_Offset: {x: 0, y: 0}
    - _MaskMapT2DA:
        m_Texture: {fileID: 0}
        m_Scale: {x: 1, y: 1}
        m_Offset: {x: 0, y: 0}
    - _MaskTex:
        m_Texture: {fileID: 2800000, guid: 029ca72742c94299aa081f9a95e2a0f0, type: 3}
        m_Scale: {x: 1, y: 1}
        m_Offset: {x: 0, y: 0}
    - _MetallicGlossMap:
        m_Texture: {fileID: 0}
        m_Scale: {x: 1, y: 1}
        m_Offset: {x: 0, y: 0}
    - _MetallicTex:
        m_Texture: {fileID: 0}
        m_Scale: {x: 1, y: 1}
        m_Offset: {x: 0, y: 0}
    - _MotionVectorScaleMap:
        m_Texture: {fileID: 0}
        m_Scale: {x: 1, y: 1}
        m_Offset: {x: 0, y: 0}
    - _NoiseTex:
        m_Texture: {fileID: 0}
        m_Scale: {x: 1, y: 1}
        m_Offset: {x: 0, y: 0}
    - _NormalMap:
        m_Texture: {fileID: 2800000, guid: 9dfc9a282cd0490b9ffd3c16f5555d14, type: 3}
        m_Scale: {x: 1, y: 1}
        m_Offset: {x: 0, y: 0}
    - _NormalMapOS:
        m_Texture: {fileID: 0}
        m_Scale: {x: 1, y: 1}
        m_Offset: {x: 0, y: 0}
    - _NormalMapOST2DA:
        m_Texture: {fileID: 0}
        m_Scale: {x: 1, y: 1}
        m_Offset: {x: 0, y: 0}
    - _NormalMapT2DA:
        m_Texture: {fileID: 0}
        m_Scale: {x: 1, y: 1}
        m_Offset: {x: 0, y: 0}
    - _NormalTex:
        m_Texture: {fileID: 2800000, guid: 9dfc9a282cd0490b9ffd3c16f5555d14, type: 3}
        m_Scale: {x: 1, y: 1}
        m_Offset: {x: 0, y: 0}
    - _ObjectSpaceBaseNormalMap:
        m_Texture: {fileID: 0}
        m_Scale: {x: 1, y: 1}
        m_Offset: {x: 0, y: 0}
    - _OcclusionMap:
        m_Texture: {fileID: 0}
        m_Scale: {x: 1, y: 1}
        m_Offset: {x: 0, y: 0}
    - _OcclusionTex:
        m_Texture: {fileID: 0}
        m_Scale: {x: 1, y: 1}
        m_Offset: {x: 0, y: 0}
    - _ParallaxMap:
        m_Texture: {fileID: 0}
        m_Scale: {x: 1, y: 1}
        m_Offset: {x: 0, y: 0}
    - _SmoothnessTex:
        m_Texture: {fileID: 0}
        m_Scale: {x: 1, y: 1}
        m_Offset: {x: 0, y: 0}
    - _SpecGlossMap:
        m_Texture: {fileID: 0}
        m_Scale: {x: 1, y: 1}
        m_Offset: {x: 0, y: 0}
    - _SpecularColorMap:
        m_Texture: {fileID: 0}
        m_Scale: {x: 1, y: 1}
        m_Offset: {x: 0, y: 0}
    - _SpecularColorMapT2DA:
        m_Texture: {fileID: 0}
        m_Scale: {x: 1, y: 1}
        m_Offset: {x: 0, y: 0}
    - _SpecularOcclusionMap:
        m_Texture: {fileID: 0}
        m_Scale: {x: 1, y: 1}
        m_Offset: {x: 0, y: 0}
    - _SpecularOcclusionMapT2DA:
        m_Texture: {fileID: 0}
        m_Scale: {x: 1, y: 1}
        m_Offset: {x: 0, y: 0}
    - _SubsurfaceMaskMap:
        m_Texture: {fileID: 0}
        m_Scale: {x: 1, y: 1}
        m_Offset: {x: 0, y: 0}
    - _SubsurfaceRadiusMap:
        m_Texture: {fileID: 0}
        m_Scale: {x: 1, y: 1}
        m_Offset: {x: 0, y: 0}
    - _SubsurfaceRadiusMapT2DA:
        m_Texture: {fileID: 0}
        m_Scale: {x: 1, y: 1}
        m_Offset: {x: 0, y: 0}
    - _SubsurfaceTex:
        m_Texture: {fileID: 2800000, guid: c3594b3080184b1409bf5cf8ac75f2ee, type: 3}
        m_Scale: {x: 1, y: 1}
        m_Offset: {x: 0, y: 0}
    - _TangentMap:
        m_Texture: {fileID: 0}
        m_Scale: {x: 1, y: 1}
        m_Offset: {x: 0, y: 0}
    - _TangentMapOS:
        m_Texture: {fileID: 0}
        m_Scale: {x: 1, y: 1}
        m_Offset: {x: 0, y: 0}
    - _TangentMapOST2DA:
        m_Texture: {fileID: 0}
        m_Scale: {x: 1, y: 1}
        m_Offset: {x: 0, y: 0}
    - _TangentMapT2DA:
        m_Texture: {fileID: 0}
        m_Scale: {x: 1, y: 1}
        m_Offset: {x: 0, y: 0}
    - _ThicknessMap:
        m_Texture: {fileID: 2800000, guid: c3594b3080184b1409bf5cf8ac75f2ee, type: 3}
        m_Scale: {x: 1, y: 1}
        m_Offset: {x: 0, y: 0}
    - _ThicknessMapT2DA:
        m_Texture: {fileID: 0}
        m_Scale: {x: 1, y: 1}
        m_Offset: {x: 0, y: 0}
    - _TransmissionThicknessMap:
        m_Texture: {fileID: 0}
        m_Scale: {x: 1, y: 1}
        m_Offset: {x: 0, y: 0}
    - _TransmittanceColorMap:
        m_Texture: {fileID: 0}
        m_Scale: {x: 1, y: 1}
        m_Offset: {x: 0, y: 0}
    - _WindFlutterMap:
        m_Texture: {fileID: 0}
        m_Scale: {x: 1, y: 1}
        m_Offset: {x: 0, y: 0}
    - _tex4coord:
        m_Texture: {fileID: 0}
        m_Scale: {x: 1, y: 1}
        m_Offset: {x: 0, y: 0}
    - _texcoord:
        m_Texture: {fileID: 0}
        m_Scale: {x: 1, y: 1}
        m_Offset: {x: 0, y: 0}
    - _texcoord2:
        m_Texture: {fileID: 0}
        m_Scale: {x: 1, y: 1}
        m_Offset: {x: 0, y: 0}
    - unity_Lightmaps:
        m_Texture: {fileID: 0}
        m_Scale: {x: 1, y: 1}
        m_Offset: {x: 0, y: 0}
    - unity_LightmapsInd:
        m_Texture: {fileID: 0}
        m_Scale: {x: 1, y: 1}
        m_Offset: {x: 0, y: 0}
    - unity_ShadowMasks:
        m_Texture: {fileID: 0}
        m_Scale: {x: 1, y: 1}
        m_Offset: {x: 0, y: 0}
    m_Ints: []
    m_Floats:
    - _AORemapMax: 1
    - _AORemapMin: 0.90197545
    - _ATDistance: 1
    - _AdvancedCat: 0
    - _AlbedoAffectEmissive: 0
    - _AlphaClipValue: 0.5
    - _AlphaCutoff: 0.5
    - _AlphaCutoffEnable: 1
    - _AlphaCutoffPostpass: 0.5
    - _AlphaCutoffPrepass: 0.5
    - _AlphaCutoffValue: 0.5
    - _AlphaFeatherValue: 0.5
    - _AlphaVariationValue: 0
    - _Anisotropy: 0
    - _Asperity: 1
    - _BackfaceSmoothnessScale: 1
    - _Banner: 0
    - _BarkCategory: 0
    - _BarkMessage: 0
    - _BaseCategory: 0
    - _BaseMapEncoding: 0
    - _BatchingMessage: 0
    - _BillboardCat: 0
    - _BillboardFadeHValue: 0
    - _BillboardFadeVValue: 0
    - _BillboardMode: 0
    - _BillboardShadowMode: 0
    - _BlendMode: 0
    - _BumpScale: 1
    - _CameraFadeValue: 0
    - _CategoryDetail: 0
    - _CategoryEmissive: 1
    - _CategoryGlobal: 1
    - _CategoryGradient: 1
    - _CategoryMain: 1
    - _CategoryMotion: 1
    - _CategoryNoise: 0
    - _CategoryOcclusion: 1
    - _CategoryPerspective: 0
    - _CategoryRender: 1
    - _CategoryRendering: 0
    - _CategorySizeFade: 0
    - _CategorySubsurface: 1
    - _CoatCoverage: 1
    - _CoatIOR: 0.5
    - _CoatMask: 0
    - _ColorsMaskMaxValue: 1
    - _ColorsMaskMinValue: 0
    - _ColorsMaskValue: 0
    - _ColorsPositionMode: 0
    - _ColorsVariationValue: 0
    - _CullMode: 2
    - _CullModeForward: 2
    - _CullModeNormalFlip: 1
    - _Cutoff: 0.5
    - _DebugTreeOcclusion: 0
    - _DepthOffset: 0
    - _DepthOffsetEnable: 0
    - _DetailAlbedoScale: 1
    - _DetailBlendMode: 1
    - _DetailCat: 0
    - _DetailMapsMode: 0
    - _DetailMaskContrast: 0
    - _DetailMode: 0
    - _DetailNormalMapScale: 1
    - _DetailNormalScale: 1
    - _DetailSmoothnessScale: 1
    - _DetailSpace: 0
    - _DetailTypeMode: 0
    - _DiffusionProfile: 2
    - _DisplacementLockObjectScale: 1
    - _DisplacementLockTilingScale: 1
    - _DisplacementMode: 0
    - _DistortionBlendMode: 0
    - _DistortionBlurBlendMode: 0
    - _DistortionBlurDstBlend: 1
    - _DistortionBlurRemapMax: 1
    - _DistortionBlurRemapMin: 0
    - _DistortionBlurScale: 1
    - _DistortionBlurSrcBlend: 1
    - _DistortionDepthTest: 0
    - _DistortionDstBlend: 1
    - _DistortionEnable: 0
    - _DistortionOnly: 0
    - _DistortionScale: 1
    - _DistortionSrcBlend: 1
    - _DistortionVectorBias: -1
    - _DistortionVectorScale: 2
    - _DoubleSidedEnable: 1
    - _DoubleSidedNormalMode: 1
    - _Drag: 1
    - _DstBlend: 0
    - _EmissiveCat: 1
    - _EmissiveColorMode: 1
    - _EmissiveFlagMode: 0
    - _EnableAmbient: 1
    - _EnableBlendModePreserveSpecularLighting: 1
    - _EnableFogOnTransparent: 1
    - _EnableGeometricSpecularAA: 0
    - _EnableMotionVectorForVertexAnimation: 0
    - _EnablePerPixelDisplacement: 0
    - _EnableSpecular: 1
    - _EnableSpecularOcclusion: 0
    - _EnableWind: 6
    - _EnergyConservingSpecularColor: 1
    - _ExtrasPositionMode: 0
    - _FadeCameraValue: 1
    - _FadeCat: 0
    - _FadeGlancingValue: 0
    - _FadeSpace: 0
    - _Float6: 0.5
    - _FullDetailNormalBlendThreshold: 1
    - _FullDetailNormalBlendWidth: 0.05
    - _GlobalAlpha: 1
    - _GlobalCat: 1
    - _GlobalColors: 1
    - _GlobalEmissive: 1
    - _GlobalHealthiness: 1
    - _GlobalLeaves: 1
    - _GlobalOverlay: 1
    - _GlobalSize: 1
    - _GlobalSizeFade: 0
    - _GlobalSpace: 0
    - _GlobalWetness: 1
    - _GlossMapScale: 1
    - _Glossiness: 0.5
    - _GlossyReflections: 1
    - _GradientCat: 1
    - _GradientHeightMaxValue: 1
    - _GradientHeightMinValue: 0
    - _GradientMaxValue: 1
    - _GradientMinValue: 0
    - _GrassPerspectiveAngleValue: 0
    - _GrassPerspectiveNoiseValue: 0
    - _GrassPerspectivePushValue: 0
    - _HasEmissive: 1
    - _HasGradient: 1
    - _HasOcclusion: 1
    - _HdrpVersion: 1
    - _HeightAmplitude: 0.01
    - _HeightCenter: 0.5
    - _HeightMapParametrization: 0
    - _HeightMax: 1
    - _HeightMin: -1
    - _HeightOffset: 0
    - _HeightPoMAmplitude: 2
    - _HeightTessAmplitude: 2
    - _HeightTessCenter: 0.5
    - _HorizonFade: 1
    - _IOR: 1
    - _InitialBend: 1
    - _InteractionAmplitude: 0
    - _InteractionMaskValue: 1
    - _InteractionVariation: 0
    - _InvTilingScale: 1
    - _Ior: 1
    - _IridescenceMask: 1
    - _IridescenceThickness: 1
    - _IsBalancedShader: 1
    - _IsForwardPathShader: 1
    - _IsLeafShader: 1
    - _IsLitShader: 1
    - _IsStandardPipeline: 1
    - _IsStandardShader: 0
    - _IsSubsurfaceShader: 1
    - _IsTVEShader: 1
    - _IsTarget40Shader: 1
    - _IsVersion: 700
    - _LayerColorsValue: 0
    - _LayerExtrasValue: 0
    - _LayerMotionValue: 0
    - _LayerReactValue: 0
    - _LayerVertexValue: 0
    - _LayersSpace: 0
    - _LeafCategory: 0
    - _LeafMessage: 0
    - _LeavesVariationValue: 0
    - _LinkDetailsWithBase: 1
    - _LocalAlpha: 1
    - _LocalCat: 0
    - _LocalLeaves: 1
    - _LocalSize: 1
    - _MainCat: 1
    - _MainColorMode: 1
    - _MainLightAngleValue: 8
    - _MainLightNormalValue: 0.5
    - _MainLightScatteringValue: 8
    - _MainMaskMaxValue: 1
    - _MainMaskMinValue: 0
    - _MainMaskValue: 0
    - _MainMessage: 0
    - _MainMetallicValue: 0
    - _MainNormalValue: 1
    - _MainOcclusionValue: 1
    - _MainSmoothnessValue: 1
    - _MaskMapEncoding: 1
    - _MaskMode: 0
    - _MaterialID: 5
    - _MessageGlobalsVariation: 0
    - _MessageMotionVariation: 0
    - _MessageSizeFade: 0
    - _MessageTranslucencyHD: 0
    - _Metallic: 0
    - _Mode: 3
    - _MoiseCat: 0
    - _MotionAmplitude_10: 0.05
    - _MotionAmplitude_20: 0.001
    - _MotionAmplitude_21: 0
    - _MotionAmplitude_22: 0
    - _MotionAmplitude_30: 0
    - _MotionAmplitude_32: 0
    - _MotionCat: 1
    - _MotionFacingValue: 1
    - _MotionNormalValue: 1
    - _MotionScale_10: 10
    - _MotionScale_20: 20
    - _MotionScale_30: 0
    - _MotionScale_32: 0
    - _MotionSpace: 0
    - _MotionSpeed_10: 2
    - _MotionSpeed_20: 20
    - _MotionSpeed_30: 15
    - _MotionSpeed_32: 10
    - _MotionValue_20: 1
    - _MotionValue_30: 1
    - _MotionVariation_10: 20
    - _MotionVariation_20: 10
    - _MotionVariation_30: 0
    - _MotionVariation_32: 0
    - _MotionVectorScale: 0
    - _MotionVectorsWorldspaceScaled: 0
    - _Motion_10: 1
    - _Motion_20: 1
    - _Motion_30: 1
    - _Motion_32: 1
    - _Motion_Interaction: 1
    - _NoiseCat: 1
    - _NoiseMaxValue: 1
    - _NoiseMinValue: 0
    - _NoiseScaleValue: 0.01
    - _NormalMapSpace: 0
    - _NormalScale: 8
    - _ObjectDataMessage: 0
    - _ObjectMetallicValue: 0
    - _ObjectOcclusionValue: 0
    - _ObjectSmoothnessValue: 0
    - _ObjectThicknessValue: 0
    - _OcclusionCat: 1
    - _OcclusionStrength: 0
    - _OverlayBottomValue: 0.5
    - _OverlayContrast: 0
    - _OverlayContrastValue: 4
    - _OverlayMaskMaxValue: 0.35675675
    - _OverlayMaskMinValue: 0.26936936
    - _OverlayVariation: 0
    - _OverlayVariationValue: 1
    - _PPDLodThreshold: 5
    - _PPDMaxSamples: 15
    - _PPDMinSamples: 5
    - _PPDPrimitiveLength: 1
    - _PPDPrimitiveWidth: 1
    - _Parallax: 0.02
    - _PerspectiveCat: 0
    - _PivotsMessage: 0
    - _PreRefractionPass: 0
    - _QueueControl: -1
    - _QueueOffset: 0
    - _ReceiveSpace: 0
    - _RefractionMode: 0
    - _RefractionModel: 0
    - _RefractionSSRayModel: 0
    - _RenderAmbient: 1
    - _RenderBlend: 0
    - _RenderClip: 1
    - _RenderCoverage: 0
    - _RenderCull: 2
    - _RenderCutoff: 0.5
    - _RenderDecals: 0
    - _RenderDirect: 1
    - _RenderMode: 0
    - _RenderNormals: 0
    - _RenderPriority: 0
    - _RenderQueue: 0
    - _RenderSSR: 0
    - _RenderShadow: 1
    - _RenderSpecular: 0
    - _RenderZWrite: 1
    - _RenderingCat: 1
    - _SSRefractionProjectionModel: 0
    - _SSSAndTransmissionType: 2
    - _SettingsCategory: 0
    - _ShaderMode: 0
    - _ShiverDirectionality: 0.354
    - _ShiverDrag: 0.2
    - _SizeFadeCat: 0
    - _SizeFadeEndValue: 300
    - _SizeFadeMessage: 0
    - _SizeFadeMode: 0
    - _SizeFadeStartValue: 200
    - _Smoothness: 1
    - _SmoothnessRemapMax: 0.32910925
    - _SmoothnessRemapMin: 0
    - _SmoothnessTextureChannel: 0
    - _SmoothnessViewAngleOffset: 0
    - _SpaceGlobalLayers: 0
    - _SpaceGlobalLocals: 0
    - _SpaceGlobalPosition: 0
    - _SpaceMotionGlobals: 0
    - _SpaceMotionHighlight: 0
    - _SpaceMotionLocals: 0
    - _SpaceRenderFade: 0
    - _SpaceRenderReceive: 0
    - _SpecularAAScreenSpaceVariance: 0.1
    - _SpecularAAThreshold: 0.2
    - _SpecularHighlights: 1
    - _SrcBlend: 1
    - _StencilRef: 130
    - _StencilRefMV: 128
    - _StencilWriteMask: 135
    - _StencilWriteMaskMV: 128
    - _Stiffness: 1
    - _SubsurfaceAmbientValue: 0.2
    - _SubsurfaceAngleValue: 8
    - _SubsurfaceCat: 1
    - _SubsurfaceDiffusion: 3.5648174
    - _SubsurfaceDirectValue: 1
    - _SubsurfaceLightValue: 1
    - _SubsurfaceMask: 1
    - _SubsurfaceMaskMaxValue: 1
    - _SubsurfaceMaskMinValue: 0
    - _SubsurfaceMaskValue: 1
    - _SubsurfaceMaxValue: 1
    - _SubsurfaceMinValue: 0
    - _SubsurfaceMode: 1
    - _SubsurfaceNormalValue: 0
    - _SubsurfaceProfile: 0
    - _SubsurfaceRadius: 1
    - _SubsurfaceScatteringValue: 2
    - _SubsurfaceShadowValue: 1
    - _SubsurfaceValue: 1
    - _SubsurfaceViewValue: 1
    - _SupportDBuffer: 0
    - _SurfaceCategory: 0
    - _SurfaceMessage: 0
    - _SurfaceType: 0
    - _TexWorldScale: 1
    - _TexWorldScaleEmissive: 1
    - _Thickness: 1
    - _ThicknessMapEncoding: 1
    - _ThicknessMultiplier: 1
    - _TransAmbient: 0.2
    - _TransDirect: 1
    - _TransNormal: 0
    - _TransNormalDistortion: 0
    - _TransScattering: 8
    - _TransShadow: 1
    - _TransStrength: 2
    - _Translucency: 2
    - _TranslucencyAmbientValue: 0.2
    - _TranslucencyDirectValue: 1
    - _TranslucencyHDMessage: 0
    - _TranslucencyIntensityValue: 1
    - _TranslucencyNormalValue: 0.1
    - _TranslucencyScatteringValue: 2
    - _TranslucencyShadowValue: 1
    - _TransmissionEnable: 1
    - _TransmissionSelfOcclusion: 1
    - _TransmissionThicknessScale: 1
    - _TransparentBackfaceEnable: 0
    - _TransparentDepthPostpassEnable: 0
    - _TransparentDepthPrepassEnable: 0
    - _TransparentSortPriority: 0
    - _Tree12Width: 0.08
    - _TreeAO: 1
    - _TreeAO2: 2.4
    - _TreeAOBias: 0.1
    - _TreeAOBias2: 0.35
    - _TreeDO: 7.5
    - _TreeDO2: 5
    - _TreeDOBias: 0
    - _TreeDOBias2: 0
    - _UVBase: 0
    - _UVDetail: 0
    - _UVEmissive: 0
    - _UVSec: 0
    - _UseObjectSpaceBaseNormalMap: 0
    - _UseTransmission: 1
    - _UseTreeOcclusion: 1
    - _UseWind: 0
    - _VariationGlobalsMessage: 0
    - _VariationMessage: 0
    - _VariationMotionMessage: 0
    - _VertexCat: 0
    - _VertexDataMode: 0
    - _VertexDynamicMode: 0
    - _VertexHeightValue: 0.107770495
    - _VertexMasksMode: 0
    - _VertexMotionMode: 0
    - _VertexMotionSpace: 0
    - _VertexOcclusion: 0
    - _VertexOcclusionMaxValue: 0
    - _VertexOcclusionMinValue: 0
    - _VertexOcclusionValue: 0
    - _VertexPivotMode: 0
    - _VertexPivotModeFetch: 0
    - _VertexRadiusValue: 1.284389
    - _VertexRollingMode: 1
    - _VertexVariationMode: 0
    - _WindElasticityLvl0: 1
    - _WindElasticityLvl1: 1
    - _WindElasticityLvlB: 1
    - _WindFakeSingleObjectPivot: 0
    - _WindFlutterElasticity: 0.604
    - _WindFlutterPeriodScale: 1.08
    - _WindFlutterPhase: 150
    - _WindFlutterScale: 0.017
    - _WindHeightIntensity: 0.014
    - _WindHeightScale: 0.1
    - _WindHeightSpeed: 0.000005
    - _WindInnerRadius: 5
    - _WindRadiusIntensity: 0.092
    - _WindRadiusSpeed: 0.00001
    - _WindRangeLvl0: 2
    - _WindRangeLvl1: 0.5
    - _WindRangeLvlB: 0.1
    - _WindRangeRadius: 7.77
    - _WorldDataMessage: 0
    - _ZTestDepthEqualForOpaque: 3
    - _ZTestGBuffer: 4
    - _ZTestMode: 8
    - _ZTestModeDistortion: 8
    - _ZWrite: 1
    - __dirty: 1
    - _material_batching: 0
    - _render_blend: 0
    - _render_clip: 1
    - _render_coverage: 0
    - _render_cull: 2
    - _render_cutoff: 0.5
    - _render_dst: 0
    - _render_mode: 0
    - _render_normals: 0
    - _render_premul: 0
    - _render_priority: 0
    - _render_src: 1
    - _render_zw: 1
    - _subsurface_shadow: 1
    - _vertex_pivot_mode: 0
    m_Colors:
    - _AlphaMaskRemap: {r: 0, g: 0, b: 0, a: 0}
    - _BackfaceBaseColorScale: {r: 1, g: 1, b: 1, a: 1}
    - _BaseColor: {r: 0.740106, g: 0.8177474, b: 0.8602941, a: 1}
    - _BaseColorRandomize: {r: 0, g: 0, b: 0, a: 0.05}
    - _Color: {r: 1, g: 1, b: 1, a: 1}
    - _ColorsMaskRemap: {r: 0, g: 0, b: 0, a: 0}
    - _DetailBlendRemap: {r: 0, g: 0, b: 0, a: 0}
    - _DoubleSidedConstants: {r: -1, g: -1, b: -1, a: 0}
    - _EmissionColor: {r: 1, g: 1, b: 1, a: 1}
    - _EmissiveColor: {r: 0, g: 0, b: 0, a: 1}
    - _EmissiveIntensityParams: {r: 1, g: 1, b: 1, a: 0}
    - _EmissiveUVs: {r: 1, g: 1, b: 0, a: 0}
    - _GradientColorOne: {r: 1, g: 1, b: 1, a: 1}
    - _GradientColorTwo: {r: 1, g: 1, b: 1, a: 1}
    - _GradientMaskRemap: {r: 0, g: 0, b: 0, a: 0}
    - _ImposterOffset: {r: 0.5, g: 0, b: 0, a: 0}
    - _InvPrimScale: {r: 1, g: 1, b: 0, a: 0}
    - _IridescenceThicknessRemap: {r: 0, g: 1, b: 0, a: 0}
    - _LeavesMaskRemap: {r: 0, g: 0, b: 0, a: 2}
    - _LocalColors: {r: 1, g: 1, b: 1, a: 1}
    - _MainColor: {r: 1, g: 1, b: 1, a: 1}
    - _MainUVs: {r: 1, g: 1, b: 0, a: 0}
    - _MaxBoundsInfo: {r: 1.284389, g: 0.107770495, b: 1.284389, a: 0}
    - _NoiseColorOne: {r: 1, g: 1, b: 1, a: 1}
    - _NoiseColorTwo: {r: 1, g: 1, b: 1, a: 1}
    - _NoiseMaskRemap: {r: 0, g: 0, b: 0, a: 0}
    - _NoiseTintOne: {r: 1, g: 1, b: 1, a: 1}
    - _NoiseTintTwo: {r: 1, g: 1, b: 1, a: 1}
    - _OverlayMaskRemap: {r: 0.26936936, g: 0.35675675, b: 0, a: 0}
    - _PeeledBarkColor: {r: 1, g: 1, b: 1, a: 1}
    - _PeeledBarkColorAlt: {r: 0.9, g: 0.9, b: 1, a: 1}
    - _PeeledBarkUVRangeScale: {r: 0, g: 1, b: 2, a: 0}
    - _SpecColor: {r: 0.19999996, g: 0.19999996, b: 0.19999996, a: 1}
    - _SpecularColor: {r: 1, g: 1, b: 1, a: 1}
    - _SubsurfaceColor: {r: 0.3315085, g: 0.490566, b: 0, a: 1}
    - _SubsurfaceDiffusion_Asset: {r: 2.2888926e+38, g: 1.2389358e-26, b: 7.69327e-37, a: 0.00018220427}
    - _SubsurfaceDiffusion_asset: {r: 2.2888926e+38, g: 1.2389358e-26, b: 7.69327e-37, a: 0.00018220427}
    - _SubsurfaceMaskRemap: {r: 0, g: 0, b: 0, a: 0}
    - _ThicknessRemap: {r: 0, g: 1, b: 0, a: 0}
    - _TransmittanceColor: {r: 1, g: 1, b: 1, a: 1}
    - _UVDetailsMappingMask: {r: 1, g: 0, b: 0, a: 0}
    - _UVMappingMask: {r: 1, g: 0, b: 0, a: 0}
    - _UVMappingMaskEmissive: {r: 1, g: 0, b: 0, a: 0}
    - _VertexOcclusionColor: {r: 0, g: 0, b: 0, a: 0}
    - _VertexOcclusionRemap: {r: 0, g: 0, b: 0, a: 0}
    - _render_normals: {r: -1, g: -1, b: -1, a: 0}
    - _render_normals_options: {r: -1, g: -1, b: -1, a: 0}
  m_BuildTextureStacks: []
