%YAML 1.1
%TAG !u! tag:unity3d.com,2011:
--- !u!114 &11400000
MonoBehaviour:
  m_ObjectHideFlags: 0
  m_CorrespondingSourceObject: {fileID: 0}
  m_PrefabInstance: {fileID: 0}
  m_PrefabAsset: {fileID: 0}
  m_GameObject: {fileID: 0}
  m_Enabled: 1
  m_EditorHideFlags: 0
  m_Script: {fileID: 11500000, guid: 78b2425a2284af743826c689403a4924, type: 3}
  m_Name: Compute Alpha Clip
  m_EditorClassIdentifier: 
  m_functionInfo: "// Made with Amplify Shader Editor\n// Available at the Unity
    Asset Store - http://u3d.as/y3X \n/*ASEBEGIN\nVersion=18935\n1920;6;1920;1023;1380.985;141.3019;1;True;False\nNode;AmplifyShaderEditor.FunctionInput;3;-640,256;Inherit;False;Alpha;1;0;False;1;0;FLOAT;0;False;1;FLOAT;0\nNode;AmplifyShaderEditor.FunctionInput;15;-641,382;Inherit;False;Treshold;1;1;False;1;0;FLOAT;0.5;False;1;FLOAT;0\nNode;AmplifyShaderEditor.FunctionSubtitle;12;128,256;Inherit;False;Use
    Alpha Clipping;1;0;FLOAT;0;False;1;FLOAT;0\nNode;AmplifyShaderEditor.FunctionSwitch;10;512,256;Inherit;False;Bypass
    Alpha Clipping;True;0;2;-1;Enable With Alpha Clipping;Enable Always;Object;-1;9;0;FLOAT;0;False;1;FLOAT;0;False;2;FLOAT;0;False;3;FLOAT;0;False;4;FLOAT;0;False;5;FLOAT;0;False;6;FLOAT;0;False;7;FLOAT;0;False;8;FLOAT;0;False;1;FLOAT;0\nNode;AmplifyShaderEditor.FunctionSubtitle;13;128,384;Inherit;False;Bypass
    Alpha Clipping;1;0;FLOAT;0;False;1;FLOAT;0\nNode;AmplifyShaderEditor.CustomExpressionNode;9;-384,384;Inherit;False;$#if
    defined (TVE_IS_HD_PIPELINE)$\t#if !defined (SHADERPASS_FORWARD_BYPASS_ALPHA_TEST)$\t\tclip(Alpha
    - Treshold)@$\t#endif$$\t#if !defined (SHADERPASS_GBUFFER_BYPASS_ALPHA_TEST)$\t\tclip(Alpha
    - Treshold)@$\t#endif$#else$\tclip(Alpha - Treshold)@$#endif$;7;Call;2;True;Alpha;FLOAT;0;InOut;;Float;False;True;Treshold;FLOAT;0;In;;Inherit;False;CustomAlphaClip;False;False;0;;False;3;0;FLOAT;0;False;1;FLOAT;0;False;2;FLOAT;0;False;2;FLOAT;0;FLOAT;2\nNode;AmplifyShaderEditor.CustomExpressionNode;19;-384,256;Inherit;False;#if
    defined (TVE_FEATURE_CLIP)$$#if defined (TVE_IS_HD_PIPELINE)$\t#if !defined (SHADERPASS_FORWARD_BYPASS_ALPHA_TEST)$\t\tclip(Alpha
    - Treshold)@$\t#endif$$\t#if !defined (SHADERPASS_GBUFFER_BYPASS_ALPHA_TEST)$\t\tclip(Alpha
    - Treshold)@$\t#endif$#else$\tclip(Alpha - Treshold)@$#endif$$#endif$;7;Call;2;True;Alpha;FLOAT;0;InOut;;Float;False;True;Treshold;FLOAT;0;In;;Inherit;False;CustomAlphaClip;False;False;0;;False;3;0;FLOAT;0;False;1;FLOAT;0;False;2;FLOAT;0;False;2;FLOAT;0;FLOAT;2\nNode;AmplifyShaderEditor.FunctionOutput;0;1024,256;Inherit;False;True;-1;;0;False;1;0;FLOAT;0;False;1;FLOAT;0\nWireConnection;12;0;19;2\nWireConnection;10;0;12;0\nWireConnection;10;1;13;0\nWireConnection;13;0;9;2\nWireConnection;9;1;3;0\nWireConnection;9;2;15;0\nWireConnection;19;1;3;0\nWireConnection;19;2;15;0\nWireConnection;0;0;10;0\nASEEND*/\n//CHKSM=5E2D310914D5C2153CED8E928AB502581F7E8FCE"
  m_functionName: 
  m_description: 
  m_additionalIncludes:
    m_additionalIncludes: []
    m_outsideIncludes: []
  m_additionalPragmas:
    m_additionalPragmas: []
    m_outsidePragmas: []
  m_additionalDirectives:
    m_validData: 0
    m_isDirty: 0
    m_moduleName: ' Additional Directives'
    m_independentModule: 1
    m_customEdited: 0
    m_additionalDirectives: []
    m_shaderFunctionDirectives: []
    m_nativeDirectives: []
    m_nativeDirectivesIndex: -1
    m_nativeDirectivesFoldout: 0
    m_directivesSaveItems: []
  m_nodeCategory: 0
  m_customNodeCategory: The Vegetation Engine
  m_previewPosition: 0
  m_hidden: 0
  m_url: 
