%YAML 1.1
%TAG !u! tag:unity3d.com,2011:
--- !u!114 &11400000
MonoBehaviour:
  m_ObjectHideFlags: 0
  m_CorrespondingSourceObject: {fileID: 0}
  m_PrefabInstance: {fileID: 0}
  m_PrefabAsset: {fileID: 0}
  m_GameObject: {fileID: 0}
  m_Enabled: 1
  m_EditorHideFlags: 0
  m_Script: {fileID: 11500000, guid: 78b2425a2284af743826c689403a4924, type: 3}
  m_Name: Compute Motion Noise
  m_EditorClassIdentifier: 
  m_functionInfo: "// Made with Amplify Shader Editor\n// Available at the Unity
    Asset Store - http://u3d.as/y3X \n/*ASEBEGIN\nVersion=18935\n1920;0;1920;1029;-1519.969;1019.551;2.644806;True;False\nNode;AmplifyShaderEditor.BreakToComponentsNode;494;1984,-1152;Inherit;False;FLOAT2;1;0;FLOAT2;0,0;False;16;FLOAT;0;FLOAT;1;FLOAT;2;FLOAT;3;FLOAT;4;FLOAT;5;FLOAT;6;FLOAT;7;FLOAT;8;FLOAT;9;FLOAT;10;FLOAT;11;FLOAT;12;FLOAT;13;FLOAT;14;FLOAT;15\nNode;AmplifyShaderEditor.SimpleAddOpNode;492;576,-1920;Inherit;False;2;2;0;FLOAT;0;False;1;FLOAT;1;False;1;FLOAT;0\nNode;AmplifyShaderEditor.GetLocalVarNode;619;384,1152;Inherit;False;449;Global_Speed;1;0;OBJECT;;False;1;FLOAT;0\nNode;AmplifyShaderEditor.PowerNode;429;3328,-1280;Inherit;False;False;2;0;FLOAT;0;False;1;FLOAT;1;False;1;FLOAT;0\nNode;AmplifyShaderEditor.BreakToComponentsNode;500;1984,-1408;Inherit;False;FLOAT2;1;0;FLOAT2;0,0;False;16;FLOAT;0;FLOAT;1;FLOAT;2;FLOAT;3;FLOAT;4;FLOAT;5;FLOAT;6;FLOAT;7;FLOAT;8;FLOAT;9;FLOAT;10;FLOAT;11;FLOAT;12;FLOAT;13;FLOAT;14;FLOAT;15\nNode;AmplifyShaderEditor.FractNode;607;1408,1024;Inherit;False;1;0;FLOAT;0;False;1;FLOAT;0\nNode;AmplifyShaderEditor.SimpleMultiplyOpNode;580;768,256;Inherit;False;4;4;0;FLOAT3;0,0,0;False;1;FLOAT;0;False;2;FLOAT;0;False;3;FLOAT;0;False;1;FLOAT3;0\nNode;AmplifyShaderEditor.SimpleMultiplyOpNode;424;768,-1408;Inherit;False;4;4;0;FLOAT2;0,0;False;1;FLOAT2;0,0;False;2;FLOAT;0;False;3;FLOAT;0;False;1;FLOAT2;0\nNode;AmplifyShaderEditor.BreakToComponentsNode;638;4480,256;Inherit;False;FLOAT3;1;0;FLOAT3;0,0,0;False;16;FLOAT;0;FLOAT;1;FLOAT;2;FLOAT;3;FLOAT;4;FLOAT;5;FLOAT;6;FLOAT;7;FLOAT;8;FLOAT;9;FLOAT;10;FLOAT;11;FLOAT;12;FLOAT;13;FLOAT;14;FLOAT;15\nNode;AmplifyShaderEditor.SimpleAddOpNode;502;2112,-1408;Inherit;False;2;2;0;FLOAT;0;False;1;FLOAT;0;False;1;FLOAT;0\nNode;AmplifyShaderEditor.SimpleAddOpNode;460;2496,-2432;Inherit;False;2;2;0;FLOAT;0;False;1;FLOAT;0;False;1;FLOAT;0\nNode;AmplifyShaderEditor.SwizzleNode;636;3072,256;Inherit;False;FLOAT3;0;1;2;3;1;0;COLOR;0,0,0,0;False;1;FLOAT3;0\nNode;AmplifyShaderEditor.SimpleMultiplyOpNode;504;2432,-1408;Inherit;False;2;2;0;FLOAT;0;False;1;FLOAT;0;False;1;FLOAT;0\nNode;AmplifyShaderEditor.SamplerNode;581;2304,640;Inherit;True;Property;_TextureSample1;Texture
    Sample 1;1;0;Create;True;0;0;0;False;0;False;-1;None;None;True;0;False;white;Auto;False;Object;-1;Auto;Texture2D;8;0;SAMPLER2D;;False;1;FLOAT2;0,0;False;2;FLOAT;0;False;3;FLOAT2;0,0;False;4;FLOAT2;0,0;False;5;FLOAT;1;False;6;FLOAT;0;False;7;SAMPLERSTATE;;False;5;COLOR;0;FLOAT;1;FLOAT;2;FLOAT;3;FLOAT;4\nNode;AmplifyShaderEditor.SimpleMultiplyOpNode;587;1664,896;Inherit;False;2;2;0;FLOAT2;0,0;False;1;FLOAT;0;False;1;FLOAT2;0\nNode;AmplifyShaderEditor.RangedFloatNode;589;384,448;Inherit;False;Constant;_Float1;Float
    1;1;0;Create;True;0;0;0;False;0;False;0.0075;0;0;0;0;1;FLOAT;0\nNode;AmplifyShaderEditor.SimpleMultiplyOpNode;630;1152,1024;Inherit;False;2;2;0;FLOAT;0;False;1;FLOAT;0;False;1;FLOAT;0\nNode;AmplifyShaderEditor.GetLocalVarNode;617;384,256;Inherit;False;419;Input_Position;1;0;OBJECT;;False;1;FLOAT3;0\nNode;AmplifyShaderEditor.ScaleAndOffsetNode;516;3712,-1280;Inherit;False;3;0;FLOAT;0;False;1;FLOAT;1.2;False;2;FLOAT;-0.2;False;1;FLOAT;0\nNode;AmplifyShaderEditor.SimpleAddOpNode;634;3712,256;Inherit;False;2;2;0;FLOAT3;0,0,0;False;1;FLOAT;0.2;False;1;FLOAT3;0\nNode;AmplifyShaderEditor.SimpleDivideOpNode;584;2304,1152;Inherit;False;2;0;FLOAT;0;False;1;FLOAT;0;False;1;FLOAT;0\nNode;AmplifyShaderEditor.RangedFloatNode;628;1920,1280;Float;False;Constant;_Float3;Float
    3;1;0;Create;True;0;0;0;False;0;False;0.5;0;0;0;0;1;FLOAT;0\nNode;AmplifyShaderEditor.GetLocalVarNode;435;384,-1408;Inherit;False;419;Input_Position;1;0;OBJECT;;False;1;FLOAT3;0\nNode;AmplifyShaderEditor.NegateNode;577;768,768;Inherit;False;1;0;FLOAT2;0,0;False;1;FLOAT2;0\nNode;AmplifyShaderEditor.RangedFloatNode;575;1152,1280;Float;False;Constant;_Float0;Float
    0;1;0;Create;True;0;0;0;False;0;False;0.5;0;0;0;0;1;FLOAT;0\nNode;AmplifyShaderEditor.GetLocalVarNode;620;384,1088;Inherit;False;62;Input_MotionSpeed;1;0;OBJECT;;False;1;FLOAT;0\nNode;AmplifyShaderEditor.RangedFloatNode;623;992,1152;Inherit;False;Constant;_Float2;Float
    2;1;0;Create;True;0;0;0;False;0;False;0.03;0;0;0;0;1;FLOAT;0\nNode;AmplifyShaderEditor.SamplerNode;594;2304,256;Inherit;True;Property;_TextureSample0;Texture
    Sample 0;1;0;Create;True;0;0;0;False;0;False;-1;None;None;True;0;False;white;Auto;False;Object;-1;Auto;Texture2D;8;0;SAMPLER2D;;False;1;FLOAT2;0,0;False;2;FLOAT;0;False;3;FLOAT2;0,0;False;4;FLOAT2;0,0;False;5;FLOAT;1;False;6;FLOAT;0;False;7;SAMPLERSTATE;;False;5;COLOR;0;FLOAT;1;FLOAT;2;FLOAT;3;FLOAT;4\nNode;AmplifyShaderEditor.SimpleMultiplyOpNode;491;2944,-2432;Inherit;False;2;2;0;FLOAT;0;False;1;FLOAT;0;False;1;FLOAT;0\nNode;AmplifyShaderEditor.SimpleAddOpNode;627;992,1024;Inherit;False;2;2;0;FLOAT;0;False;1;FLOAT;0;False;1;FLOAT;0\nNode;AmplifyShaderEditor.FunctionInput;319;384,-2176;Inherit;False;Global
    Wind;1;2;False;1;0;FLOAT;0;False;1;FLOAT;0\nNode;AmplifyShaderEditor.LerpOp;590;2816,256;Inherit;False;3;0;COLOR;0,0,0,0;False;1;COLOR;0,0,0,0;False;2;FLOAT;0;False;1;COLOR;0\nNode;AmplifyShaderEditor.LerpOp;430;3072,-1280;Inherit;False;3;0;FLOAT;1.4;False;1;FLOAT;0.4;False;2;FLOAT;0;False;1;FLOAT;0\nNode;AmplifyShaderEditor.FractNode;598;1536,1152;Inherit;False;1;0;FLOAT;0;False;1;FLOAT;0\nNode;AmplifyShaderEditor.GetLocalVarNode;608;3456,512;Inherit;False;327;Input_GlobalWind;1;0;OBJECT;;False;1;FLOAT;0\nNode;AmplifyShaderEditor.SimpleAddOpNode;576;1408,1152;Inherit;False;2;2;0;FLOAT;0;False;1;FLOAT;0;False;1;FLOAT;0\nNode;AmplifyShaderEditor.GetLocalVarNode;450;384,-1152;Inherit;False;448;Global_Scale;1;0;OBJECT;;False;1;FLOAT;0\nNode;AmplifyShaderEditor.RegisterLocalVarNode;287;768,-1920;Float;False;Input_MotionScale;-1;True;1;0;FLOAT;0;False;1;FLOAT;0\nNode;AmplifyShaderEditor.GetLocalVarNode;596;384,320;Inherit;False;287;Input_MotionScale;1;0;OBJECT;;False;1;FLOAT;0\nNode;AmplifyShaderEditor.GetLocalVarNode;563;1920,-2240;Inherit;False;561;Global_DistScale;1;0;OBJECT;;False;1;FLOAT;0\nNode;AmplifyShaderEditor.GetLocalVarNode;543;1920,-2432;Inherit;False;419;Input_Position;1;0;OBJECT;;False;1;FLOAT3;0\nNode;AmplifyShaderEditor.LerpOp;612;3712,512;Inherit;False;3;0;FLOAT;1.4;False;1;FLOAT;0.4;False;2;FLOAT;0;False;1;FLOAT;0\nNode;AmplifyShaderEditor.SimpleMultiplyOpNode;599;1664,768;Inherit;False;2;2;0;FLOAT2;0,0;False;1;FLOAT;0;False;1;FLOAT2;0\nNode;AmplifyShaderEditor.RegisterLocalVarNode;569;768,-1664;Half;False;Input_GlobalVariation;-1;True;1;0;FLOAT;0;False;1;FLOAT;0\nNode;AmplifyShaderEditor.FunctionNode;621;384,1024;Inherit;False;Get
    Global Time;-1;;59;2b2f842f8071fb945821b595284b5848;0;1;88;FLOAT3;0,0,0;False;1;FLOAT;0\nNode;AmplifyShaderEditor.SimpleAddOpNode;593;1920,640;Inherit;False;2;2;0;FLOAT2;0,0;False;1;FLOAT2;0,0;False;1;FLOAT2;0\nNode;AmplifyShaderEditor.SinOpNode;485;2688,-2432;Inherit;False;1;0;FLOAT;0;False;1;FLOAT;0\nNode;AmplifyShaderEditor.GetLocalVarNode;618;384,768;Inherit;False;423;Input_DirectionWS;1;0;OBJECT;;False;1;FLOAT2;0\nNode;AmplifyShaderEditor.GetLocalVarNode;624;384,1408;Inherit;False;284;Input_MotionVariation;1;0;OBJECT;;False;1;FLOAT;0\nNode;AmplifyShaderEditor.GetLocalVarNode;625;384,1472;Inherit;False;569;Input_GlobalVariation;1;0;OBJECT;;False;1;FLOAT;0\nNode;AmplifyShaderEditor.SimpleAddOpNode;588;1920,512;Inherit;False;2;2;0;FLOAT2;0,0;False;1;FLOAT2;0,0;False;1;FLOAT2;0\nNode;AmplifyShaderEditor.SinOpNode;501;2240,-1408;Inherit;False;1;0;FLOAT;0;False;1;FLOAT;0\nNode;AmplifyShaderEditor.SimpleMultiplyOpNode;622;768,1024;Inherit;False;3;3;0;FLOAT;0;False;1;FLOAT;0;False;2;FLOAT;0;False;1;FLOAT;0\nNode;AmplifyShaderEditor.FunctionInput;422;384,-2304;Inherit;False;DirectionWS;2;1;False;1;0;FLOAT2;0,0;False;1;FLOAT2;0\nNode;AmplifyShaderEditor.RegisterLocalVarNode;448;1536,-2432;Half;False;Global_Scale;-1;True;1;0;FLOAT;0;False;1;FLOAT;0\nNode;AmplifyShaderEditor.SimpleMultiplyOpNode;499;1792,-1408;Inherit;False;2;2;0;FLOAT2;0,0;False;1;FLOAT;0;False;1;FLOAT2;0\nNode;AmplifyShaderEditor.SimpleSubtractOpNode;602;1920,1152;Inherit;False;2;0;FLOAT;0;False;1;FLOAT;0;False;1;FLOAT;0\nNode;AmplifyShaderEditor.SamplerStateNode;629;1920,432;Inherit;False;0;0;0;1;-1;None;1;0;SAMPLER2D;;False;1;SAMPLERSTATE;0\nNode;AmplifyShaderEditor.SimpleAddOpNode;425;1280,-1408;Inherit;False;2;2;0;FLOAT2;0,0;False;1;FLOAT;0;False;1;FLOAT2;0\nNode;AmplifyShaderEditor.RelayNode;444;3072,-1408;Inherit;False;1;0;FLOAT;0;False;1;FLOAT;0\nNode;AmplifyShaderEditor.Vector4Node;441;1152,-2432;Half;False;Global;TVE_NoiseParams;TVE_NoiseParams;2;0;Create;True;0;0;0;False;0;False;0,0,0,0;1,1,2,0.4;0;5;FLOAT4;0;FLOAT;1;FLOAT;2;FLOAT;3;FLOAT;4\nNode;AmplifyShaderEditor.FunctionInput;568;384,-1664;Inherit;False;Global
    Variation;1;3;False;1;0;FLOAT;0;False;1;FLOAT;0\nNode;AmplifyShaderEditor.GetLocalVarNode;571;384,-320;Inherit;False;569;Input_GlobalVariation;1;0;OBJECT;;False;1;FLOAT;0\nNode;AmplifyShaderEditor.SwizzleNode;597;1152,256;Inherit;False;FLOAT2;0;2;2;3;1;0;FLOAT3;0,0,0;False;1;FLOAT2;0\nNode;AmplifyShaderEditor.AbsOpNode;600;2080,1152;Inherit;False;1;0;FLOAT;0;False;1;FLOAT;0\nNode;AmplifyShaderEditor.SimpleMultiplyOpNode;446;1792,-1152;Inherit;False;2;2;0;FLOAT2;0,0;False;1;FLOAT;0;False;1;FLOAT2;0\nNode;AmplifyShaderEditor.GetLocalVarNode;437;384,-384;Inherit;False;284;Input_MotionVariation;1;0;OBJECT;;False;1;FLOAT;0\nNode;AmplifyShaderEditor.RegisterLocalVarNode;284;768,-1792;Half;False;Input_MotionVariation;-1;True;1;0;FLOAT;0;False;1;FLOAT;0\nNode;AmplifyShaderEditor.RegisterLocalVarNode;327;768,-2176;Half;False;Input_GlobalWind;-1;True;1;0;FLOAT;0;False;1;FLOAT;0\nNode;AmplifyShaderEditor.RegisterLocalVarNode;62;768,-2048;Half;False;Input_MotionSpeed;-1;True;1;0;FLOAT;0;False;1;FLOAT;0\nNode;AmplifyShaderEditor.FunctionInput;222;384,-1920;Inherit;False;Motion
    Scale;1;5;False;1;0;FLOAT;0;False;1;FLOAT;0\nNode;AmplifyShaderEditor.SimpleMultiplyOpNode;465;2176,-2432;Inherit;False;2;2;0;FLOAT3;0,0,0;False;1;FLOAT;0;False;1;FLOAT3;0\nNode;AmplifyShaderEditor.RegisterLocalVarNode;419;768,-2432;Half;False;Input_Position;-1;True;1;0;FLOAT3;0,0,0;False;1;FLOAT3;0\nNode;AmplifyShaderEditor.RegisterLocalVarNode;449;1536,-2368;Half;False;Global_Speed;-1;True;1;0;FLOAT;0;False;1;FLOAT;0\nNode;AmplifyShaderEditor.GetLocalVarNode;431;2688,-1216;Inherit;False;327;Input_GlobalWind;1;0;OBJECT;;False;1;FLOAT;0\nNode;AmplifyShaderEditor.RangedFloatNode;498;1632,-1312;Half;False;Constant;_Small;Small;4;0;Create;True;0;0;0;False;0;False;0.1178;0.05;0;0;0;1;FLOAT;0\nNode;AmplifyShaderEditor.SimpleMultiplyOpNode;570;768,-384;Inherit;False;2;2;0;FLOAT;0;False;1;FLOAT;0;False;1;FLOAT;0\nNode;AmplifyShaderEditor.TexturePropertyNode;586;1920,256;Float;True;Global;TVE_NoiseTex;TVE_NoiseTex;0;0;Create;True;0;0;0;False;0;False;None;9881e099480439147ba51cc2d31303b6;False;white;Auto;Texture2D;-1;0;2;SAMPLER2D;0;SAMPLERSTATE;1\nNode;AmplifyShaderEditor.FunctionInput;221;384,-2048;Inherit;False;Motion
    Speed;1;4;False;1;0;FLOAT;0;False;1;FLOAT;0\nNode;AmplifyShaderEditor.SimpleMultiplyOpNode;439;3328,-1408;Inherit;False;2;2;0;FLOAT;0;False;1;FLOAT;0;False;1;FLOAT;0\nNode;AmplifyShaderEditor.BreakToComponentsNode;461;2368,-2432;Inherit;False;FLOAT3;1;0;FLOAT3;0,0,0;False;16;FLOAT;0;FLOAT;1;FLOAT;2;FLOAT;3;FLOAT;4;FLOAT;5;FLOAT;6;FLOAT;7;FLOAT;8;FLOAT;9;FLOAT;10;FLOAT;11;FLOAT;12;FLOAT;13;FLOAT;14;FLOAT;15\nNode;AmplifyShaderEditor.SinOpNode;495;2240,-1152;Inherit;False;1;0;FLOAT;0;False;1;FLOAT;0\nNode;AmplifyShaderEditor.SwizzleNode;637;3072,384;Inherit;False;FLOAT;3;1;2;3;1;0;COLOR;0,0,0,0;False;1;FLOAT;0\nNode;AmplifyShaderEditor.GetLocalVarNode;562;2688,-2240;Inherit;False;559;Global_DistAmplitude;1;0;OBJECT;;False;1;FLOAT;0\nNode;AmplifyShaderEditor.ScaleAndOffsetNode;496;2688,-1409.715;Inherit;False;3;0;FLOAT;0;False;1;FLOAT;0.4;False;2;FLOAT;0.6;False;1;FLOAT;0\nNode;AmplifyShaderEditor.RegisterLocalVarNode;469;3136,-2432;Inherit;False;Noise_Distortion;-1;True;1;0;FLOAT;0;False;1;FLOAT;0\nNode;AmplifyShaderEditor.SimpleAddOpNode;513;1152,-896;Inherit;False;3;3;0;FLOAT;0;False;1;FLOAT;0;False;2;FLOAT;0;False;1;FLOAT;0\nNode;AmplifyShaderEditor.FunctionInput;418;384,-2432;Inherit;False;Position;3;0;False;1;0;FLOAT3;0.2,0,0;False;1;FLOAT3;0\nNode;AmplifyShaderEditor.GetLocalVarNode;440;384,-768;Inherit;False;62;Input_MotionSpeed;1;0;OBJECT;;False;1;FLOAT;0\nNode;AmplifyShaderEditor.GetLocalVarNode;436;384,-1216;Inherit;False;287;Input_MotionScale;1;0;OBJECT;;False;1;FLOAT;0\nNode;AmplifyShaderEditor.RangedFloatNode;497;1632,-1056;Half;False;Constant;_Large;Large;3;0;Create;True;0;0;0;False;0;False;0.1742;0.05;0;0;0;1;FLOAT;0\nNode;AmplifyShaderEditor.RegisterLocalVarNode;423;768,-2304;Half;False;Input_DirectionWS;-1;True;1;0;FLOAT2;0,0;False;1;FLOAT2;0\nNode;AmplifyShaderEditor.PowerNode;604;3968,256;Inherit;False;False;2;0;FLOAT3;0,0,0;False;1;FLOAT;1;False;1;FLOAT3;0\nNode;AmplifyShaderEditor.SimpleMultiplyOpNode;626;768,1408;Inherit;False;2;2;0;FLOAT;0;False;1;FLOAT;0;False;1;FLOAT;0\nNode;AmplifyShaderEditor.GetLocalVarNode;631;384,384;Inherit;False;448;Global_Scale;1;0;OBJECT;;False;1;FLOAT;0\nNode;AmplifyShaderEditor.RegisterLocalVarNode;561;1536,-2240;Half;False;Global_DistScale;-1;True;1;0;FLOAT;0;False;1;FLOAT;0\nNode;AmplifyShaderEditor.SwizzleNode;433;608,-1408;Inherit;False;FLOAT2;0;2;2;3;1;0;FLOAT3;0,0,0;False;1;FLOAT2;0\nNode;AmplifyShaderEditor.SimpleAddOpNode;493;2112,-1152;Inherit;False;2;2;0;FLOAT;0;False;1;FLOAT;0;False;1;FLOAT;0\nNode;AmplifyShaderEditor.RegisterLocalVarNode;559;1536,-2304;Half;False;Global_DistAmplitude;-1;True;1;0;FLOAT;0;False;1;FLOAT;0\nNode;AmplifyShaderEditor.GetLocalVarNode;451;384,-704;Inherit;False;449;Global_Speed;1;0;OBJECT;;False;1;FLOAT;0\nNode;AmplifyShaderEditor.FunctionInput;218;384,-1792;Inherit;False;Motion
    Variation;1;6;False;1;0;FLOAT;0;False;1;FLOAT;0\nNode;AmplifyShaderEditor.GetLocalVarNode;438;384,-1280;Inherit;False;423;Input_DirectionWS;1;0;OBJECT;;False;1;FLOAT2;0\nNode;AmplifyShaderEditor.GetLocalVarNode;490;384,-576;Inherit;False;469;Noise_Distortion;1;0;OBJECT;;False;1;FLOAT;0\nNode;AmplifyShaderEditor.SimpleMultiplyOpNode;442;768,-896;Inherit;False;3;3;0;FLOAT;0;False;1;FLOAT;0;False;2;FLOAT;0;False;1;FLOAT;0\nNode;AmplifyShaderEditor.RangedFloatNode;639;3456,384;Half;False;Constant;_Float4;Float
    4;1;0;Create;True;0;0;0;False;0;False;0.2;0;0;0;0;1;FLOAT;0\nNode;AmplifyShaderEditor.AbsOpNode;642;3456,256;Inherit;False;1;0;FLOAT3;0,0,0;False;1;FLOAT3;0\nNode;AmplifyShaderEditor.ScaleAndOffsetNode;644;4224,256;Inherit;False;3;0;FLOAT3;0,0,0;False;1;FLOAT;1.4;False;2;FLOAT;-0.2;False;1;FLOAT3;0\nNode;AmplifyShaderEditor.FunctionNode;573;384,-896;Inherit;False;Get
    Global Time;-1;;57;2b2f842f8071fb945821b595284b5848;0;1;88;FLOAT3;0,0,0;False;1;FLOAT;0\nNode;AmplifyShaderEditor.FunctionOutput;641;4736,384;Inherit;False;False;-1;B;2;False;1;0;FLOAT;0;False;1;FLOAT;0\nNode;AmplifyShaderEditor.FunctionOutput;421;3200,384;Inherit;False;False;-1;A;3;False;1;0;FLOAT;0;False;1;FLOAT;0\nNode;AmplifyShaderEditor.FunctionOutput;324;4736,256;Inherit;False;True;-1;R;0;False;1;0;FLOAT;0;False;1;FLOAT;0\nNode;AmplifyShaderEditor.FunctionOutput;640;4736,320;Inherit;False;False;-1;G;1;False;1;0;FLOAT;0;False;1;FLOAT;0\nWireConnection;494;0;446;0\nWireConnection;492;0;222;0\nWireConnection;429;0;444;0\nWireConnection;429;1;430;0\nWireConnection;500;0;499;0\nWireConnection;607;0;630;0\nWireConnection;580;0;617;0\nWireConnection;580;1;596;0\nWireConnection;580;2;631;0\nWireConnection;580;3;589;0\nWireConnection;424;0;433;0\nWireConnection;424;1;438;0\nWireConnection;424;2;436;0\nWireConnection;424;3;450;0\nWireConnection;638;0;644;0\nWireConnection;502;0;500;0\nWireConnection;502;1;500;1\nWireConnection;460;0;461;0\nWireConnection;460;1;461;2\nWireConnection;636;0;590;0\nWireConnection;504;0;501;0\nWireConnection;504;1;495;0\nWireConnection;581;0;586;0\nWireConnection;581;1;593;0\nWireConnection;581;7;629;0\nWireConnection;587;0;577;0\nWireConnection;587;1;598;0\nWireConnection;630;0;627;0\nWireConnection;630;1;623;0\nWireConnection;516;0;429;0\nWireConnection;634;0;642;0\nWireConnection;634;1;639;0\nWireConnection;584;0;600;0\nWireConnection;584;1;628;0\nWireConnection;577;0;618;0\nWireConnection;594;0;586;0\nWireConnection;594;1;588;0\nWireConnection;594;7;629;0\nWireConnection;491;0;485;0\nWireConnection;491;1;562;0\nWireConnection;627;0;622;0\nWireConnection;627;1;626;0\nWireConnection;590;0;594;0\nWireConnection;590;1;581;0\nWireConnection;590;2;584;0\nWireConnection;430;2;431;0\nWireConnection;598;0;576;0\nWireConnection;576;0;630;0\nWireConnection;576;1;575;0\nWireConnection;287;0;492;0\nWireConnection;612;2;608;0\nWireConnection;599;0;577;0\nWireConnection;599;1;607;0\nWireConnection;569;0;568;0\nWireConnection;593;0;597;0\nWireConnection;593;1;587;0\nWireConnection;485;0;460;0\nWireConnection;588;0;597;0\nWireConnection;588;1;599;0\nWireConnection;501;0;502;0\nWireConnection;622;0;621;0\nWireConnection;622;1;620;0\nWireConnection;622;2;619;0\nWireConnection;448;0;441;1\nWireConnection;499;0;425;0\nWireConnection;499;1;498;0\nWireConnection;602;0;607;0\nWireConnection;602;1;575;0\nWireConnection;425;0;424;0\nWireConnection;425;1;513;0\nWireConnection;444;0;496;0\nWireConnection;597;0;580;0\nWireConnection;600;0;602;0\nWireConnection;446;0;425;0\nWireConnection;446;1;497;0\nWireConnection;284;0;218;0\nWireConnection;327;0;319;0\nWireConnection;62;0;221;0\nWireConnection;465;0;543;0\nWireConnection;465;1;563;0\nWireConnection;419;0;418;0\nWireConnection;449;0;441;2\nWireConnection;570;0;437;0\nWireConnection;570;1;571;0\nWireConnection;439;0;444;0\nWireConnection;439;1;444;0\nWireConnection;461;0;465;0\nWireConnection;495;0;493;0\nWireConnection;637;0;590;0\nWireConnection;496;0;504;0\nWireConnection;469;0;491;0\nWireConnection;513;0;442;0\nWireConnection;513;1;490;0\nWireConnection;513;2;570;0\nWireConnection;423;0;422;0\nWireConnection;604;0;634;0\nWireConnection;604;1;612;0\nWireConnection;626;0;624;0\nWireConnection;626;1;625;0\nWireConnection;561;0;441;4\nWireConnection;433;0;435;0\nWireConnection;493;0;494;0\nWireConnection;493;1;494;1\nWireConnection;559;0;441;3\nWireConnection;442;0;573;0\nWireConnection;442;1;440;0\nWireConnection;442;2;451;0\nWireConnection;642;0;636;0\nWireConnection;644;0;604;0\nWireConnection;641;0;638;2\nWireConnection;421;0;637;0\nWireConnection;324;0;638;0\nWireConnection;640;0;638;1\nASEEND*/\n//CHKSM=82F4BE3AF704BA97230B0FE8D1C8A08AFBBB75F3"
  m_functionName: 
  m_description: '

'
  m_additionalIncludes:
    m_additionalIncludes: []
    m_outsideIncludes: []
  m_additionalPragmas:
    m_additionalPragmas: []
    m_outsidePragmas: []
  m_additionalDirectives:
    m_validData: 0
    m_isDirty: 0
    m_moduleName: ' Additional Directives'
    m_independentModule: 1
    m_customEdited: 0
    m_additionalDirectives: []
    m_shaderFunctionDirectives: []
    m_nativeDirectives: []
    m_nativeDirectivesIndex: -1
    m_nativeDirectivesFoldout: 0
    m_directivesSaveItems: []
  m_nodeCategory: 0
  m_customNodeCategory: The Vegetation Engine
  m_previewPosition: 0
  m_hidden: 1
  m_url: 
