%YAML 1.1
%TAG !u! tag:unity3d.com,2011:
--- !u!114 &11400000
MonoBehaviour:
  m_ObjectHideFlags: 0
  m_CorrespondingSourceObject: {fileID: 0}
  m_PrefabInstance: {fileID: 0}
  m_PrefabAsset: {fileID: 0}
  m_GameObject: {fileID: 0}
  m_Enabled: 1
  m_EditorHideFlags: 0
  m_Script: {fileID: 11500000, guid: 78b2425a2284af743826c689403a4924, type: 3}
  m_Name: Get Mesh Pivots
  m_EditorClassIdentifier: 
  m_functionInfo: "// Made with Amplify Shader Editor\n// Available at the Unity
    Asset Store - http://u3d.as/y3X \n/*ASEBEGIN\nVersion=18935\n1920;12;1920;1017;1385.442;2312.632;1;True;False\nNode;AmplifyShaderEditor.DynamicAppendNode;60;-512,-1920;Inherit;False;FLOAT3;4;0;FLOAT;0;False;1;FLOAT;0;False;2;FLOAT;0;False;3;FLOAT;0;False;1;FLOAT3;0\nNode;AmplifyShaderEditor.TexCoordVertexDataNode;61;-768,-1920;Inherit;False;3;4;0;5;FLOAT4;0;FLOAT;1;FLOAT;2;FLOAT;3;FLOAT;4\nNode;AmplifyShaderEditor.FunctionOutput;53;-256,-1920;Inherit;False;True;-1;;0;False;1;0;FLOAT3;0,0,0;False;1;FLOAT3;0\nWireConnection;60;0;61;1\nWireConnection;60;1;61;3\nWireConnection;60;2;61;2\nWireConnection;53;0;60;0\nASEEND*/\n//CHKSM=234312402C2668BFE5BAB64F3C11C4BE6EBA1731"
  m_functionName: 
  m_description: 
  m_additionalIncludes:
    m_additionalIncludes: []
    m_outsideIncludes: []
  m_additionalPragmas:
    m_additionalPragmas: []
    m_outsidePragmas: []
  m_additionalDirectives:
    m_validData: 0
    m_isDirty: 0
    m_moduleName: ' Additional Directives'
    m_independentModule: 1
    m_customEdited: 0
    m_additionalDirectives: []
    m_shaderFunctionDirectives: []
    m_nativeDirectives: []
    m_nativeDirectivesIndex: -1
    m_nativeDirectivesFoldout: 0
    m_directivesSaveItems: []
  m_nodeCategory: 0
  m_customNodeCategory: The Vegetation Engine
  m_previewPosition: 0
  m_hidden: 0
  m_url: 
