%YAML 1.1
%TAG !u! tag:unity3d.com,2011:
--- !u!114 &11400000
MonoBehaviour:
  m_ObjectHideFlags: 0
  m_CorrespondingSourceObject: {fileID: 0}
  m_PrefabInstance: {fileID: 0}
  m_PrefabAsset: {fileID: 0}
  m_GameObject: {fileID: 0}
  m_Enabled: 1
  m_EditorHideFlags: 0
  m_Script: {fileID: 11500000, guid: 78b2425a2284af743826c689403a4924, type: 3}
  m_Name: Render Normals
  m_EditorClassIdentifier: 
  m_functionInfo: "// Made with Amplify Shader Editor\n// Available at the Unity
    Asset Store - http://u3d.as/y3X \n/*ASEBEGIN\nVersion=18935\n1920;12;1920;1017;1654.792;1166.33;1;True;False\nNode;AmplifyShaderEditor.SwitchByFaceNode;12;-320,-768;Inherit;False;2;0;FLOAT3;0,0,0;False;1;FLOAT3;0,0,0;False;1;FLOAT3;0\nNode;AmplifyShaderEditor.SimpleMultiplyOpNode;33;-576,-640;Inherit;False;2;2;0;FLOAT3;0,0,0;False;1;FLOAT3;0,0,0;False;1;FLOAT3;0\nNode;AmplifyShaderEditor.FunctionInput;13;-896,-768;Inherit;False;Normal;3;0;False;1;0;FLOAT3;0,0,0;False;1;FLOAT3;0\nNode;AmplifyShaderEditor.Vector3Node;31;-896,-640;Half;False;Property;_render_normals;_render_normals;0;1;[HideInInspector];Create;False;0;0;0;False;0;False;1,1,1;0,0,0;0;4;FLOAT3;0;FLOAT;1;FLOAT;2;FLOAT;3\nNode;AmplifyShaderEditor.FunctionOutput;0;-80,-768;Inherit;False;True;-1;;0;False;1;0;FLOAT3;0,0,0;False;1;FLOAT3;0\nNode;AmplifyShaderEditor.CommentaryNode;32;-896,-1024;Inherit;False;893.0149;100;(1,1,1)
    in normal mode (-1, -1, -1) in flip mode(1, 1, -1) in mirror mode.;0;;1,1,1,1;0;0\nWireConnection;12;0;13;0\nWireConnection;12;1;33;0\nWireConnection;33;0;13;0\nWireConnection;33;1;31;0\nWireConnection;0;0;12;0\nASEEND*/\n//CHKSM=E44D635FA59B307BA919E9AE09F8BA8B5BEAD86B"
  m_functionName: 
  m_description: Switch normal for BackFace.
  m_additionalIncludes:
    m_additionalIncludes: []
    m_outsideIncludes: []
  m_additionalPragmas:
    m_additionalPragmas: []
    m_outsidePragmas: []
  m_additionalDirectives:
    m_validData: 0
    m_isDirty: 0
    m_moduleName: ' Additional Directives'
    m_independentModule: 1
    m_customEdited: 0
    m_additionalDirectives: []
    m_shaderFunctionDirectives: []
    m_nativeDirectives: []
    m_nativeDirectivesIndex: -1
    m_nativeDirectivesFoldout: 0
    m_directivesSaveItems: []
  m_nodeCategory: 0
  m_customNodeCategory: The Vegetation Engine
  m_previewPosition: 0
  m_hidden: 0
  m_url: 
