%YAML 1.1
%TAG !u! tag:unity3d.com,2011:
--- !u!114 &11400000
MonoBehaviour:
  m_ObjectHideFlags: 0
  m_CorrespondingSourceObject: {fileID: 0}
  m_PrefabInstance: {fileID: 0}
  m_PrefabAsset: {fileID: 0}
  m_GameObject: {fileID: 0}
  m_Enabled: 1
  m_EditorHideFlags: 0
  m_Script: {fileID: 11500000, guid: 78b2425a2284af743826c689403a4924, type: 3}
  m_Name: Tool Coords
  m_EditorClassIdentifier: 
  m_functionInfo: "// Made with Amplify Shader Editor\n// Available at the Unity
    Asset Store - http://u3d.as/y3X \n/*ASEBEGIN\nVersion=18935\n1920;12;1920;1017;1603.113;1065.105;1.3;True;False\nNode;AmplifyShaderEditor.FunctionInput;34;-768,-896;Inherit;False;Index;0;0;False;1;0;INT;0;False;1;INT;0\nNode;AmplifyShaderEditor.RegisterLocalVarNode;42;-512,-896;Inherit;False;Index;-1;True;1;0;INT;0;False;1;INT;0\nNode;AmplifyShaderEditor.SimpleAddOpNode;44;0,-640;Inherit;False;4;4;0;FLOAT2;0,0;False;1;FLOAT2;0,0;False;2;FLOAT2;0,0;False;3;FLOAT2;0,0;False;1;FLOAT2;0\nNode;AmplifyShaderEditor.GetLocalVarNode;43;-768,-640;Inherit;False;42;Index;1;0;OBJECT;;False;1;INT;0\nNode;AmplifyShaderEditor.ConditionalIfNode;40;-346,-635;Inherit;False;False;5;0;INT;0;False;1;FLOAT;0;False;2;FLOAT;0;False;3;FLOAT2;0,0;False;4;FLOAT;0;False;1;FLOAT2;0\nNode;AmplifyShaderEditor.TexCoordVertexDataNode;41;-768,-560;Inherit;False;0;2;0;5;FLOAT2;0;FLOAT;1;FLOAT;2;FLOAT;3;FLOAT;4\nNode;AmplifyShaderEditor.GetLocalVarNode;46;-768,-384;Inherit;False;42;Index;1;0;OBJECT;;False;1;INT;0\nNode;AmplifyShaderEditor.ConditionalIfNode;47;-352,-384;Inherit;False;False;5;0;INT;0;False;1;FLOAT;1;False;2;FLOAT;0;False;3;FLOAT2;0,0;False;4;FLOAT;0;False;1;FLOAT2;0\nNode;AmplifyShaderEditor.TexCoordVertexDataNode;48;-768,-304;Inherit;False;1;2;0;5;FLOAT2;0;FLOAT;1;FLOAT;2;FLOAT;3;FLOAT;4\nNode;AmplifyShaderEditor.GetLocalVarNode;49;-768,-128;Inherit;False;42;Index;1;0;OBJECT;;False;1;INT;0\nNode;AmplifyShaderEditor.TexCoordVertexDataNode;51;-768,-48;Inherit;False;1;2;0;5;FLOAT2;0;FLOAT;1;FLOAT;2;FLOAT;3;FLOAT;4\nNode;AmplifyShaderEditor.ConditionalIfNode;50;-352,-128;Inherit;False;False;5;0;INT;0;False;1;FLOAT;2;False;2;FLOAT;0;False;3;FLOAT2;0,0;False;4;FLOAT;0;False;1;FLOAT2;0\nNode;AmplifyShaderEditor.GetLocalVarNode;52;-768,128;Inherit;False;42;Index;1;0;OBJECT;;False;1;INT;0\nNode;AmplifyShaderEditor.TexCoordVertexDataNode;53;-768,208;Inherit;False;1;2;0;5;FLOAT2;0;FLOAT;1;FLOAT;2;FLOAT;3;FLOAT;4\nNode;AmplifyShaderEditor.ConditionalIfNode;54;-352,128;Inherit;False;False;5;0;INT;0;False;1;FLOAT;3;False;2;FLOAT;0;False;3;FLOAT2;0,0;False;4;FLOAT;0;False;1;FLOAT2;0\nNode;AmplifyShaderEditor.FunctionOutput;0;384,-640;Inherit;False;True;-1;Coord;0;False;1;0;FLOAT2;0,0;False;1;FLOAT2;0\nWireConnection;42;0;34;0\nWireConnection;44;0;40;0\nWireConnection;44;1;47;0\nWireConnection;44;2;50;0\nWireConnection;44;3;54;0\nWireConnection;40;0;43;0\nWireConnection;40;3;41;0\nWireConnection;47;0;46;0\nWireConnection;47;3;48;0\nWireConnection;50;0;49;0\nWireConnection;50;3;51;0\nWireConnection;54;0;52;0\nWireConnection;54;3;53;0\nWireConnection;0;0;44;0\nASEEND*/\n//CHKSM=3EC5E3AE06286472AC881BBA52EEE841473852F1"
  m_functionName: 
  m_description: 
  m_additionalIncludes:
    m_additionalIncludes: []
    m_outsideIncludes: []
  m_additionalPragmas:
    m_additionalPragmas: []
    m_outsidePragmas: []
  m_additionalDirectives:
    m_validData: 0
    m_isDirty: 1
    m_moduleName: ' Additional Directives'
    m_independentModule: 1
    m_customEdited: 0
    m_additionalDirectives: []
    m_shaderFunctionDirectives: []
    m_nativeDirectives: []
    m_nativeDirectivesIndex: -1
    m_nativeDirectivesFoldout: 0
    m_directivesSaveItems: []
  m_nodeCategory: 0
  m_customNodeCategory: The Vegetation Engine
  m_previewPosition: 0
  m_hidden: 1
  m_url: 
